Place,Name,Sex,BirthDate,Age,Equipment,Division,BodyweightKg,WeightClassKg,Squat1Kg,Squat2Kg,Squat3Kg,Best3SquatKg,Bench1Kg,Bench2Kg,Bench3Kg,Best3BenchKg,Deadlift1Kg,Deadlift2Kg,Deadlift3Kg,Best3DeadliftKg,TotalKg,Event
1,Silvia Gedge-Diaz,F,,,Raw,FR-SJ,54.15,57,72.5,77.5,-82.5,77.5,42.5,45,-47.5,45,77.5,85,90,90,212.5,SBD
1,Nyah Keep,F,,,Raw,FR-SJ,67.95,69,110,117.5,125,125,60,67.5,75,75,-120,125,135,135,335,SBD
1,Zara Shipley,F,,,Raw,FR-SJ,108,84+,97.5,102.5,107.5,107.5,50,52.5,55,55,115,,,115,277.5,SBD
1,Stella Karanasios,F,,,Raw,FR-Jr,83.4,84,140,147.5,-155,147.5,95,100,102.5,102.5,180,190,-195,190,440,SBD
2,Isabelle Hartley,F,,,Raw,FR-Jr,83.6,84,120,-130,-130,120,65,70,-75,70,140,152.5,165,165,355,SBD
1,Isabella Josephson,F,,,Raw,FR-Jr,88.2,84+,110,112.5,127.5,127.5,62.5,67.5,72.5,72.5,125,135,147.5,147.5,347.5,SBD
1,Anastasia Knight,F,,,Raw,FR-M1,78.95,84,127.5,135,140,140,62.5,67.5,-70,67.5,137.5,147.5,-155,147.5,355,SBD
1,Laura Diaz,F,,,Raw,FR-M1,119.65,84+,125,135,145,145,60,65,67.5,67.5,120,130,142.5,142.5,355,SBD
2,Jessica Riddell,F,,,Raw,FR-M1,114.75,84+,90,100,107.5,107.5,47.5,52.5,55,55,115,127.5,137.5,137.5,300,SBD
1,Jordanna Herber,F,,,Raw,FR-O,56.85,57,132.5,137.5,142.5,142.5,67.5,72.5,75,75,132.5,142.5,147.5,147.5,365,SBD
1,Kathleen Beggs,F,,,Raw,FR-O,62.95,63,137.5,145,150,150,75,80,85,85,182.5,195,202.5,202.5,437.5,SBD
2,Georgia Hamilton,F,,,Raw,FR-O,61.95,63,107.5,-110,112.5,112.5,55,-60,-60,55,140,150,-155,150,317.5,SBD
1,Adelaide Walker,F,,,Raw,FR-O,67.1,69,110,117.5,125,125,65,67.5,70,70,117.5,130,140,140,335,SBD
1,Diba Heinrich,F,,,Raw,FR-M1,66.9,69,,,,,65,70,-72.5,70,,,,,70,B
1,Cara Fox,F,,,Raw,FR-O,75.1,76,,,,,77.5,82.5,-87.5,82.5,,,,,82.5,B
1,Raiden Semgreen,M,,,Raw,MR-SJ,69.9,74,62.5,70,80,80,57.5,65,-70,65,115,125,132.5,132.5,277.5,SBD
1,Weijin Tan,M,,,Raw,MR-Jr,69.05,74,135,142.5,152.5,152.5,75,82.5,92.5,92.5,152.5,162.5,172.5,172.5,417.5,SBD
1,William Bennett,M,,,Raw,MR-Jr,80.75,83,230,242.5,247.5,247.5,130,135,-137.5,135,262.5,277.5,287.5,287.5,670,SBD
2,Jake Phillips,M,,,Raw,MR-Jr,77.1,83,187.5,202.5,210,210,132.5,140,145,145,225,242.5,252.5,252.5,607.5,SBD
3,Tim Ngo,M,,,Raw,MR-Jr,81.95,83,195,205,215,215,137.5,142.5,145,145,215,230,240,240,600,SBD
4,Nicholas Muir,M,,,Raw,MR-Jr,81.35,83,190,202.5,-207.5,202.5,125,130,135,135,225,247.5,-260,247.5,585,SBD
1,Nicholas Morrison,M,,,Raw,MR-Jr,90.95,93,227.5,240,250,250,137.5,145,150,150,257.5,275,-290,275,675,SBD
1,Matt Foley,M,,,Raw,MR-Jr,102.3,105,245,257.5,265,265,162.5,170,175,175,285,300,310,310,750,SBD
1,Nicholas Kalantzis,M,,,Raw,MR-Jr,141.9,120+,225,237.5,247.5,247.5,152.5,160,165,165,215,235,250,250,662.5,SBD
1,Jason Raby,M,,,Raw,MR-M1,92.75,93,195,205,-212.5,205,145,155,162.5,162.5,222.5,235,240,240,607.5,SBD
2,Ben Ihle,M,,,Raw,MR-M1,91.95,93,192.5,200,207.5,207.5,90,-95,-95,90,212.5,222.5,235,235,532.5,SBD
1,Richard McMahon,M,,,Raw,MR-M1,94.25,105,170,182.5,195,195,110,115,-120,115,205,220,235,235,545,SBD
1,Kavwa Sichone,M,,,Raw,MR-O,73.95,74,240,255,-265,255,167.5,177.5,-182.5,177.5,282.5,295,-307.5,295,727.5,SBD
2,Steven Day,M,,,Raw,MR-O,73.6,74,240,-255,260,260,152.5,160,165,165,255,267.5,275,275,700,SBD
3,Yuki Kashima,M,,,Raw,MR-O,68.75,74,210,225,-237.5,225,150,157.5,-165,157.5,225,240,-255,240,622.5,SBD
1,Guillaume Clarens,M,,,Raw,MR-O,82.4,83,200,212.5,220,220,165,170,-172.5,170,200,212.5,225,225,615,SBD
2,Ronald Sebastian,M,,,Raw,MR-O,82.75,83,165,175,185,185,-132.5,-137.5,137.5,137.5,240,252.5,265,265,587.5,SBD
1,William Wallace #1,M,,,Raw,MR-O,92.3,93,215,230,240,240,142.5,150,155,155,240,255,265,265,660,SBD
2,Isaiah Siulepa,M,,,Raw,MR-O,91.05,93,210,220,-227.5,220,122.5,127.5,-130,127.5,220,240,252.5,252.5,600,SBD
1,Michael Bates,M,,,Raw,MR-O,104.65,105,220,240,255,255,140,150,-157.5,150,220,240,255,255,660,SBD
2,Andrew Pegg,M,,,Raw,MR-O,97.55,105,185,202.5,210,210,125,130,-132.5,130,190,212.5,220,220,560,SBD
1,Lewis Nicholls,M,,,Raw,MR-O,115.8,120,195,210,220,220,145,-150,150,150,215,230,-240,230,600,SBD
2,John Schulze,M,,,Raw,MR-O,107.65,120,-190,190,200,200,142.5,147.5,150,150,210,225,232.5,232.5,582.5,SBD
DQ,David Gamer,M,,,Raw,MR-O,160,120+,195,-215,-225,195,-130,-130,-130,,230,255,270,270,,SBD