Division,WeightClassKg,Place,Name,Team,BodyweightKg,Best3SquatKg,Best3BenchKg,Best3DeadliftKg,TotalKg,Equipment,Event,Sex
Boys,51.71,1,Matt Cordova,Amarillo Highland Park,51.07,131.54,88.45,151.95,371.95,Single-ply,SBD,M
Boys,51.71,2,Justin Rocha,Friona,51.66,142.88,74.84,154.22,371.95,Single-ply,SBD,M
Boys,51.71,3,Jeremiah Ramirez,Levelland,46.99,131.54,65.77,158.76,356.07,Single-ply,SBD,M
Boys,55.79,4,Bryan Tran,Amarillo Highland Park,51.89,131.54,68.04,142.88,342.46,Single-ply,SBD,M
Boys,51.71,5,Favian Castellanos,Sunray,51.07,127.01,70.31,138.35,335.66,Single-ply,SBD,M
Boys,51.71,6,Vinny Meza,Bovina,50.98,122.47,74.84,133.81,331.12,Single-ply,SBD,M
Boys,51.71,7,Evan Paez,Muleshoe,50.17,102.06,56.7,122.47,281.23,Single-ply,SBD,M
Boys,55.79,8,Ronnie Doty,Panhandle,51.89,95.25,49.9,120.2,265.35,Single-ply,SBD,M
Boys,51.71,9,Kordell Lawrence,Dalhart,49.35,106.59,47.63,102.06,256.28,Single-ply,SBD,M
Boys,51.71,10,Keyvan Constantino,Whiteface,50.35,90.72,43.09,97.52,231.33,Single-ply,SBD,M
Boys,51.71,11,Bj Ambriez,Slaton,49.8,68.04,43.09,77.11,188.24,Single-ply,SBD,M
Boys,55.79,DQ,Josh Chavarria,Floydada,51.8,,,,,Single-ply,SBD,M
Boys,59.87,1,Nick Espinoza,Denver City,55.88,145.15,83.91,147.42,376.48,Single-ply,SBD,M
Boys,55.79,2,Juan Macias,Friona,55.34,131.54,74.84,158.76,365.14,Single-ply,SBD,M
Boys,59.87,3,Alex Lugo,Perryton,55.97,111.13,63.5,145.15,319.78,Single-ply,SBD,M
Boys,55.79,4,Efren Miranda,Levelland,54.79,124.74,56.7,136.08,317.51,Single-ply,SBD,M
Boys,59.87,DQ,Hector Bustillos,Sunray,55.88,,,,,Single-ply,SBD,M
Boys,55.79,DQ,Alfonzo Mendoza,Floydada,55.79,111.13,,,,Single-ply,SBD,M
Boys,59.87,DQ,Diego Rodriguez,Dimmitt,55.97,,,,,Single-ply,SBD,M
Boys,59.87,DQ,Abel Burciaga,Denver City,55.97,,,,,Single-ply,SBD,M
Boys,55.79,DQ,Fernando Corpus,Amarillo Highland Park,55.16,,,,,Single-ply,SBD,M
Boys,67.13,1,Adan Ramirez,Friona,60.01,226.8,115.67,206.38,548.85,Single-ply,SBD,M
Boys,67.13,2,Miguel Espino,Perryton,60.01,158.76,95.25,190.51,444.52,Single-ply,SBD,M
Boys,59.87,3,Esdras Rodriguez,Friona,59.69,161.03,83.91,165.56,410.5,Single-ply,SBD,M
Boys,59.87,4,Charles Sinclair,Childress,59.83,136.08,88.45,147.42,371.95,Single-ply,SBD,M
Boys,59.87,5,Kenneth Neskorik,Childress,59.15,145.15,81.65,138.35,365.14,Single-ply,SBD,M
Boys,59.87,6,Daniel Patterson #1,Sunray,59.15,129.27,74.84,149.69,353.8,Single-ply,SBD,M
Boys,59.87,7,Antonio Alvarado,Levelland,56.43,113.4,77.11,147.42,337.93,Single-ply,SBD,M
Boys,59.87,8,Mark Marquez,Dimmitt,56.34,120.2,72.57,140.61,333.39,Single-ply,SBD,M
Boys,59.87,9,Frank Arredondo,Levelland,59.51,117.93,68.04,145.15,331.12,Single-ply,SBD,M
Boys,59.87,10,Kaiden Summerville,Perryton,59.51,129.27,68.04,127.01,324.32,Single-ply,SBD,M
Boys,67.13,11,Pedro Dominguez,Bovina,60.06,102.06,63.5,136.08,301.64,Single-ply,SBD,M
Boys,59.87,12,Jose Raul Ornelas,Levelland,56.97,99.79,54.43,108.86,263.08,Single-ply,SBD,M
Boys,67.13,13,Todd Swadley,Denver City,60.06,65.77,65.77,90.72,222.26,Single-ply,SBD,M
Boys,67.13,DQ,Ramiro Carmona,Bovina,60.06,,,,,Single-ply,SBD,M
Boys,59.87,DQ,Alex Alcantar,Sunray,58.42,,,,,Single-ply,SBD,M
Boys,67.13,1,Reece Harper,Sudan,64.14,154.22,97.52,204.12,455.86,Single-ply,SBD,M
Boys,67.13,2,Cristian Paez,Muleshoe,61.6,142.88,81.65,167.83,392.36,Single-ply,SBD,M
Boys,67.13,3,Alex Machado,Dimmitt,63.41,122.47,81.65,151.95,356.07,Single-ply,SBD,M
Boys,67.13,4,Javier Alcorta,Slaton,64.95,127.01,68.04,111.13,306.17,Single-ply,SBD,M
Boys,67.13,5,Trevor Drennan,Whiteface,63.41,102.06,65.77,136.08,303.91,Single-ply,SBD,M
Boys,67.13,DQ,Jacob Miller,White Deer,65.95,92.99,,,,Single-ply,SBD,M
Boys,67.13,DQ,Garrett Ely,Sunray,63.14,,,,,Single-ply,SBD,M
Boys,67.13,DQ,Eddy Garcia,Friona,61.69,,,,,Single-ply,SBD,M
Boys,67.13,DQ,Esteban Gonzales,Dimmitt,66.95,115.67,,,,Single-ply,SBD,M
Boys,67.13,DQ,Bernie De La Cruz,Bovina,64.32,,,,,Single-ply,SBD,M
Boys,67.13,DQ,Isreal Espinoza,Bovina,63.23,,,,,Single-ply,SBD,M
Boys,67.13,DQ,Aaron James,Childress,67.09,,,,,Single-ply,SBD,M
Boys,67.13,DQ,Adrian Gonzales,Floydada,65.5,170.1,97.52,,,Single-ply,SBD,M
Boys,82.1,1,Michael Garcia #9,Friona,74.98,204.12,131.54,195.04,530.7,Single-ply,SBD,M
Boys,74.84,2,Barry Johnson,Sudan,70.58,165.56,117.93,222.26,505.76,Single-ply,SBD,M
Boys,74.84,3,Tyler Hastings,Levelland,72.39,185.97,104.33,181.44,471.74,Single-ply,SBD,M
Boys,74.84,4,Ryan Shemwell,Panhandle,71.4,161.03,113.4,170.1,444.52,Single-ply,SBD,M
Boys,74.84,5,Dustin Baumgardner,Panhandle,71.76,147.42,102.06,195.04,444.52,Single-ply,SBD,M
Boys,74.84,6,Fabian Honesto,Whiteface,72.57,174.63,77.11,181.44,433.18,Single-ply,SBD,M
Boys,74.84,7,Tyrell Campbell,Amarillo Highland Park,74.75,142.88,86.18,192.78,421.84,Single-ply,SBD,M
Boys,74.84,8,Dylan Davidison,Childress,70.4,149.69,86.18,181.44,417.3,Single-ply,SBD,M
Boys,74.84,9,Jacob Garza,Olton,67.95,149.69,106.59,158.76,415.04,Single-ply,SBD,M
Boys,74.84,10,Pj Corona,Slaton,72.85,151.95,68.04,165.56,385.55,Single-ply,SBD,M
Boys,74.84,11,Devin Novak,Amarillo Highland Park,71.4,145.15,77.11,158.76,381.02,Single-ply,SBD,M
Boys,74.84,12,Nate Rosas,Muleshoe,71.21,151.95,77.11,149.69,378.75,Single-ply,SBD,M
Boys,74.84,13,Manuel Grado,Friona,74.39,138.35,83.91,147.42,369.68,Single-ply,SBD,M
Boys,74.84,14,Emilio Espinoza,Bovina,71.76,131.54,77.11,154.22,362.87,Single-ply,SBD,M
Boys,74.84,15,Ethan Hays,Panhandle,72.3,136.08,86.18,140.61,362.87,Single-ply,SBD,M
Boys,74.84,16,Mason Mercer,Panhandle,72.48,131.54,86.18,133.81,351.53,Single-ply,SBD,M
Boys,82.1,17,Rico Alvarez,Olton,75.02,113.4,72.57,138.35,324.32,Single-ply,SBD,M
Boys,74.84,18,Justin Gandy,Panhandle,74.57,108.86,56.7,124.74,290.3,Single-ply,SBD,M
Boys,74.84,DQ,Jose Rocha,Friona,74.21,,,,,Single-ply,SBD,M
Boys,74.84,DQ,Garen Weber,Borger,68.86,,,,,Single-ply,SBD,M
Boys,74.84,DQ,Jd Lopez,Childress,72.12,,,,,Single-ply,SBD,M
Boys,74.84,DQ,Rene Rodriguez,Friona,74.48,172.37,97.52,,,Single-ply,SBD,M
Boys,82.1,DQ,Marcus Ruff,Whiteface,75.07,,,,,Single-ply,SBD,M
Boys,74.84,DQ,Franky Medina,Dalhart,69.76,199.58,111.13,,,Single-ply,SBD,M
Boys,82.1,1,Guillermo Davila,Dalhart,78.83,235.87,117.93,219.99,573.79,Single-ply,SBD,M
Boys,82.1,2,Alexander Guerrero,Childress,80.29,192.78,115.67,210.92,519.36,Single-ply,SBD,M
Boys,82.1,3,Dalten Lumen,Panhandle,80.74,183.7,115.67,204.12,503.49,Single-ply,SBD,M
Boys,82.1,4,Abel Palacios,Friona,81.96,167.83,111.13,210.92,489.88,Single-ply,SBD,M
Boys,82.1,5,Mario Lechuga,Sunray,79.74,174.63,99.79,192.78,467.2,Single-ply,SBD,M
Boys,82.1,6,Andrew Bichsel,White Deer,80.47,151.95,115.67,197.31,464.93,Single-ply,SBD,M
Boys,89.81,7,Jonathon Anderson,Sunray,82.28,176.9,106.59,167.83,451.32,Single-ply,SBD,M
Boys,82.1,8,Evan Gomez,Whiteface,78.2,181.44,106.59,156.49,444.52,Single-ply,SBD,M
Boys,82.1,9,Blaine McGregor,Amarillo Highland Park,78.29,154.22,111.13,154.22,419.57,Single-ply,SBD,M
Boys,82.1,10,Fernando Vazquez,Denver City,75.57,149.69,104.33,161.03,415.04,Single-ply,SBD,M
Boys,82.1,11,Jorge Martinez,Muleshoe,77.75,136.08,88.45,172.37,396.89,Single-ply,SBD,M
Boys,82.1,12,Issac Summerlin,Friona,77.02,136.08,65.77,161.03,362.87,Single-ply,SBD,M
Boys,82.1,13,Christopher Chavez #3,Friona,77.56,142.88,68.04,142.88,353.8,Single-ply,SBD,M
Boys,82.1,DQ,Jaime Cigarroa,Friona,81.47,170.1,86.18,,,Single-ply,SBD,M
Boys,82.1,DQ,Carter Estes,White Deer,80.2,,,,,Single-ply,SBD,M
Boys,82.1,DQ,Braxton Creagor,Slaton,77.29,,,,,Single-ply,SBD,M
Boys,89.81,DQ,Carson Turner,Floydada,82.19,136.08,,,,Single-ply,SBD,M
Boys,82.1,DQ,Courtney Gravely,Amarillo Highland Park,80.74,,,,,Single-ply,SBD,M
Boys,82.1,DQ,Allen Cruz,Amarillo Highland Park,81.83,,,,,Single-ply,SBD,M
Boys,82.1,DQ,Jesus Davila,Whiteface,82.1,172.37,90.72,,,Single-ply,SBD,M
Boys,82.1,DQ,Jacob Terry,Slaton,78.29,156.49,83.91,183.7,,Single-ply,SBD,M
Boys,82.1,DQ,Federico Carmona,Floydada,82.01,231.33,138.35,217.72,,Single-ply,SBD,M
Boys,89.81,1,Alexis Mendoza,Sunray,83.73,201.85,113.4,215.46,530.7,Single-ply,SBD,M
Boys,89.81,2,Gabe Marquez,Dalhart,89.72,201.85,124.74,201.85,528.44,Single-ply,SBD,M
Boys,89.81,3,Chase Galyean,Childress,88.5,204.12,106.59,192.78,503.49,Single-ply,SBD,M
Boys,89.81,4,Patrick Lee,Canyon Randall,89.09,179.17,113.4,204.12,496.68,Single-ply,SBD,M
Boys,89.81,5,Ivan Delgado,Whiteface,89.36,188.24,117.93,190.51,496.68,Single-ply,SBD,M
Boys,99.79,6,Adin Mizer,Canyon Randall,89.9,163.29,117.93,210.92,492.15,Single-ply,SBD,M
Boys,99.79,7,David Camargo,Slaton,89.99,181.44,95.25,188.24,464.93,Single-ply,SBD,M
Boys,89.81,8,Erick Young,Canyon Randall,89.81,176.9,122.47,156.49,455.86,Single-ply,SBD,M
Boys,89.81,9,Marciel Salinas,Slaton,86.45,174.63,90.72,188.24,453.59,Single-ply,SBD,M
Boys,89.81,10,Zack Salazar,Levelland,83.01,138.35,104.33,181.44,424.11,Single-ply,SBD,M
Boys,89.81,11,Austin Archuleta,Panhandle,85.09,156.49,90.72,136.08,383.29,Single-ply,SBD,M
Boys,89.81,12,Gage Alexander,Panhandle,85.82,133.81,83.91,161.03,378.75,Single-ply,SBD,M
Boys,89.81,13,Luis Chevet,White Deer,84.01,111.13,79.38,165.56,356.07,Single-ply,SBD,M
Boys,89.81,DQ,Cesar Calderon,Sunray,87.36,,,,,Single-ply,SBD,M
Boys,89.81,DQ,Patrick Cheney,Amarillo Highland Park,87.72,,,,,Single-ply,SBD,M
Boys,89.81,DQ,Kendall Anders,Amarillo Highland Park,88.63,,,,,Single-ply,SBD,M
Boys,89.81,DQ,Aaron Chavarri,Floydada,88.18,,,,,Single-ply,SBD,M
Boys,99.79,1,Kevin Flores,Sunray,97.79,213.19,138.35,197.31,548.85,Single-ply,SBD,M
Boys,99.79,2,Tristan Hernandez,Dimmitt,92.9,188.24,111.13,190.51,489.88,Single-ply,SBD,M
Boys,99.79,3,Alex Pena,Dimmitt,98.61,185.97,120.2,165.56,471.74,Single-ply,SBD,M
Boys,99.79,4,Brad Vincent,Canyon Randall,95.89,176.9,124.74,158.76,460.4,Single-ply,SBD,M
Boys,99.79,5,Jesse Gome,Canyon,97.61,142.88,102.06,176.9,421.84,Single-ply,SBD,M
Boys,99.79,6,Eric Vela,Canyon,94.17,145.15,102.06,163.29,410.5,Single-ply,SBD,M
Boys,99.79,7,Austin Slayton,Canyon,99.34,151.95,102.06,145.15,399.16,Single-ply,SBD,M
Boys,99.79,8,Jesus Sanchez,Bovina,92.62,140.61,74.84,145.15,360.61,Single-ply,SBD,M
Boys,99.79,DQ,Obed Lujan,Dalhart,92.62,158.76,,,,Single-ply,SBD,M
Boys,99.79,DQ,Carlos Martinez #21,Muleshoe,97.43,195.04,104.33,,,Single-ply,SBD,M
Boys,99.79,DQ,Alberto Castillo,Whiteface,97.34,,,,,Single-ply,SBD,M
Boys,109.77,1,Abayomi Salinas,Friona,109.68,244.94,142.88,233.6,621.42,Single-ply,SBD,M
Boys,109.77,2,Scott Martin,Dimmitt,106.05,224.53,122.47,231.33,578.33,Single-ply,SBD,M
Boys,109.77,3,Gavin Flores,Dimmitt,104.33,222.26,142.88,210.92,576.06,Single-ply,SBD,M
Boys,109.77,4,Tyler Brewer,Dalhart,104.51,240.4,108.86,219.99,569.26,Single-ply,SBD,M
Boys,109.77,5,Javier Torres,Dalhart,103.6,219.99,122.47,219.99,562.45,Single-ply,SBD,M
Boys,109.77,6,Juan Samarron,Friona,105.96,183.7,122.47,195.04,501.22,Single-ply,SBD,M
Boys,109.77,7,Zach Bailey,Canyon Randall,101.33,176.9,133.81,176.9,487.61,Single-ply,SBD,M
Boys,109.77,8,Dahel Davila,Whiteface,106.32,188.24,113.4,181.44,483.08,Single-ply,SBD,M
Boys,109.77,9,Ryan Lambert,Childress,105.78,181.44,106.59,192.78,480.81,Single-ply,SBD,M
Boys,109.77,10,Dakota McWhorter,Panhandle,106.68,174.63,117.93,188.24,480.81,Single-ply,SBD,M
Boys,124.74,11,Tomas Vidales,Levelland,109.86,188.24,95.25,192.78,476.27,Single-ply,SBD,M
Boys,109.77,12,Aaron Williams,Sunray,108.41,183.7,104.33,181.44,469.47,Single-ply,SBD,M
Boys,109.77,13,Skylar Howery,Canyon Randall,107.5,145.15,102.06,154.22,401.43,Single-ply,SBD,M
Boys,109.77,14,Mason Lafever,Canyon Randall,108.77,149.69,113.4,136.08,399.16,Single-ply,SBD,M
Boys,109.77,15,Brady Cooke,Panhandle,103.24,124.74,65.77,124.74,315.25,Single-ply,SBD,M
Boys,124.74,1,Chris Thomas #5,Slaton,116.75,244.94,140.61,222.26,607.81,Single-ply,SBD,M
Boys,124.74,2,Mark Munoz,Childress,121.2,219.99,145.15,222.26,587.4,Single-ply,SBD,M
Boys,124.74,3,David Rodriguez,Muleshoe,112.31,226.8,138.35,217.72,582.87,Single-ply,SBD,M
Boys,124.74,4,Anthony Anzuldua,Dalhart,113.4,204.12,133.81,192.78,530.7,Single-ply,SBD,M
Boys,124.74,5,Dalton Torres,Dalhart,119.48,195.04,102.06,215.46,512.56,Single-ply,SBD,M
Boys,124.74,6,Rodrigo Calderon,Sunray,123.29,181.44,99.79,181.44,462.66,Single-ply,SBD,M
Boys,124.74,7,Andrew Smith #7,Panhandle,114.31,151.95,106.59,172.37,430.91,Single-ply,SBD,M
Boys,124.74,8,Vincent Romero,Levelland,111.77,147.42,92.99,172.37,412.77,Single-ply,SBD,M
Boys,124.74,DQ,Celso Guerrero,Childress,123.56,263.08,,,,Single-ply,SBD,M
Boys,124.74+,1,Edgar Guerrero,Friona,128.09,317.51,197.31,301.64,816.47,Single-ply,SBD,M
Boys,124.74+,2,Kyle Weiss #1,Panhandle,142.88,258.55,195.04,217.72,671.32,Single-ply,SBD,M
Boys,124.74+,3,Santos Jackson,Dimmitt,142.7,240.4,122.47,204.12,566.99,Single-ply,SBD,M
Boys,124.74+,4,Colby Roach,Panhandle,134.54,217.72,111.13,213.19,542.04,Single-ply,SBD,M
Boys,124.74+,5,Rudy Jackson,Dimmitt,130.36,231.33,129.27,176.9,537.51,Single-ply,SBD,M
Boys,124.74+,6,Justin Barrera,Dalhart,125.65,219.99,102.06,204.12,526.17,Single-ply,SBD,M
Boys,124.74+,7,Jayme Murdock,Slaton,181.89,174.63,142.88,204.12,521.63,Single-ply,SBD,M
Boys,124.74+,8,Casey Stewart,Dalhart,125.65,199.58,111.13,185.97,496.68,Single-ply,SBD,M
Boys,124.74+,9,AJ Garcia,Slaton,160.66,147.42,104.33,154.22,405.97,Single-ply,SBD,M
Boys,124.74+,DQ,Camilo de la Rosa,Bovina,128.91,208.65,117.93,,,Single-ply,SBD,M
