Place,Name,Country,State,WeightClassKg,BodyweightKg,BirthDate,Age,Squat1Kg,Squat2Kg,Squat3Kg,Best3SquatKg,Bench1Kg,Bench2Kg,Bench3Kg,Best3BenchKg,Deadlift1Kg,Deadlift2Kg,Deadlift3Kg,Best3DeadliftKg,TotalKg,Squat4Kg,Bench4Kg,Deadlift4Kg,Event,Equipment,Sex,Division,Tested
1,Yazeneth Madero,,TX,44,41.8,,19,-87.5,-90,90,90,50,-52.5,-52.5,50,107.5,112.5,117.5,117.5,257.5,,,,SBD,Raw,F,Juniors 15-19,Yes
1,Amanda Lairmore,,IL,52,49.8,,23,145,152.5,160,160,70,72.5,-75,72.5,122.5,130,137.5,137.5,370,,,,SBD,Raw,F,Juniors 20-23,Yes
2,Katrina Ceria,,HI,52,50.8,,23,-112.5,117.5,127.5,127.5,67.5,72.5,-77.5,72.5,142.5,150,155,155,355,,,160,SBD,Raw,F,Juniors 20-23,Yes
3,Victoria Wahl,,NM,52,51.1,,21,97.5,105,-110,105,60,62.5,65,65,135,-142.5,142.5,142.5,312.5,,,,SBD,Raw,F,Juniors 20-23,Yes
1,Arissa Garcia,,HI,60,59.2,,19,105,-110,110,110,70,-77.5,77.5,77.5,140,147.5,155,155,342.5,,,,SBD,Raw,F,Juniors 15-19,Yes
1,Kelly Boudreau,,MO,67.5,66.8,,14,82.5,-92.5,92.5,92.5,42.5,47.5,50,50,115,122.5,127.5,127.5,270,,,,SBD,Raw,F,Juniors 13-15,Yes
1,Natalie Smith,,OR,67.5,63,,16,102.5,110,115,115,62.5,65,-67.5,65,125,130,137.5,137.5,317.5,,,,SBD,Raw,F,Juniors 15-19,Yes
1,Grace Gill,,AR,67.5,66.5,,21,-170,170,175,175,82.5,87.5,92.5,92.5,172.5,-180,-188,172.5,440,,,,SBD,Raw,F,Juniors 20-23,Yes
2,Mya Jenkins,,MO,67.5,64.2,,23,95,97.5,102.5,102.5,52.5,55,-57.5,55,122.5,-130,-130,122.5,280,,,,SBD,Raw,F,Juniors 20-23,Yes
1,Shelby Sprinkle,,NC,82.5,76.6,,20,125,132.5,142.5,142.5,60,65,67.5,67.5,-167.5,170,180,180,390,,,,SBD,Raw,F,Juniors 20-23,Yes
2,Brooklynne Messer,,KY,82.5,82.4,,21,-130,130,-135,130,65,70,-75,70,150,-155,-155,150,350,,,,SBD,Raw,F,Juniors 20-23,Yes
G,Leyla Ninmer,,WI,90,89.8,,21,132.5,140,147.5,147.5,72.5,75,82.5,82.5,165,172.5,-180,172.5,402.5,,,,SBD,Raw,F,Juniors 20-23,Yes
1,Zoe McDaniel,,MO,90,88.1,,23,125,135,140,140,65,70,-80,70,155,167.5,-177.5,167.5,377.5,,,,SBD,Raw,F,Juniors 20-23,Yes
1,Shreena Chopra,,MO,44,41.5,,29,90,95.5,100,100,55,57.5,-60,57.5,117.5,122.5,130,130,287.5,,,133,SBD,Raw,F,Open,Yes
2,Yazeneth Madero,,TX,44,41.8,,19,-87.5,-90,90,90,50,-52.5,-52.5,50,107.5,112.5,117.5,117.5,257.5,,,,SBD,Raw,F,Open,Yes
1,Laura Haering,,WI,48,46.8,,43,90,-100.5,100.5,100.5,55,-60.5,60.5,60.5,105,-115,115,115,276,,,125.5,SBD,Raw,F,Open,Yes
1,Amanda Lairmore,,IL,52,49.8,,23,145,152.5,160,160,70,72.5,-75,72.5,122.5,130,137.5,137.5,370,,,,SBD,Raw,F,Open,Yes
2,Katrina Ceria,,HI,52,50.8,,23,-112.5,117.5,127.5,127.5,67.5,72.5,-77.5,72.5,142.5,150,155,155,355,,,160,SBD,Raw,F,Open,Yes
3,Katie Kobin,,KS,52,52,,29,112.5,117.5,120,120,-67.5,67.5,70,70,140,142.5,-147.5,142.5,332.5,,,,SBD,Raw,F,Open,Yes
4,Rachel Lockard,,OR,52,51.6,,30,82.5,87.5,-92.5,87.5,45,47.5,-50,47.5,115,120,125,125,260,,,,SBD,Raw,F,Open,Yes
DQ,Komal Ashraf,,MO,52,51.2,,38,-97.5,-97.5,-97.5,,-45,45,50,50,127.5,135,140,140,,,,,SBD,Raw,F,Open,Yes
1,Molly Hendryx,,OR,56,55.6,,39,125,132.5,137.5,137.5,67.5,-70,70,70,-180,182.5,187.5,187.5,395,,,,SBD,Raw,F,Open,Yes
2,Kristin Estes,,ID,56,55.8,,33,132.5,137.5,142.5,142.5,87.5,90,92.5,92.5,147.5,155,160,160,395,,,,SBD,Raw,F,Open,Yes
3,Lisa Hallett,,WA,56,55.6,,35,137.5,-140,-142.5,137.5,75,-80,-80,75,175,-182.5,-182.5,175,387.5,,,,SBD,Raw,F,Open,Yes
4,Tina Andersen,,MA,56,54,,35,105,112.5,-115,112.5,57.5,-60,60,60,137.5,145,147.5,147.5,320,,,,SBD,Raw,F,Open,Yes
5,Paulene Do,,OR,56,54.2,,33,115,120,127.5,127.5,47.5,50,52.5,52.5,120,127.5,132.5,132.5,312.5,,,,SBD,Raw,F,Open,Yes
6,Megan Lancaster,,TN,56,55.3,,35,87.5,95,-100,95,50,52.5,-55,52.5,120,130,-140,130,277.5,,,,SBD,Raw,F,Open,Yes
7,Gabrielle Bryk,,OH,56,56,,28,70,77.5,-85,77.5,-55,55,60,60,100,105,112.5,112.5,250,,,,SBD,Raw,F,Open,Yes
1,Amberly Kuhlmann,,AL,60,59,,37,127.5,-135,137.5,137.5,67.5,72.5,75,75,162.5,177.5,-187.5,177.5,390,,,,SBD,Raw,F,Open,Yes
2,Lynette Hrzich,,IL,60,56.8,,26,117.5,125,130,130,72.5,80,-85,80,142.5,152.5,155,155,365,,,,SBD,Raw,F,Open,Yes
3,Becky Rich,,MO,60,59.2,,41,125,-132.5,132.5,132.5,85,92.5,-95.5,92.5,125,140,-147.5,140,365,,,,SBD,Raw,F,Open,Yes
4,Elle Bandy,,IL,60,58.6,,35,130,-135,-135,130,75,-77.5,-77.5,75,155,-160,-160,155,360,,,,SBD,Raw,F,Open,Yes
5,Cassandra Addamo,,MA,60,58.6,,29,105,112.5,117.5,117.5,65,70,-72.5,70,162.5,-175,-175,162.5,350,,,,SBD,Raw,F,Open,Yes
6,Arissa Garcia,,HI,60,59.2,,19,105,-110,110,110,70,-77.5,77.5,77.5,140,147.5,155,155,342.5,,,,SBD,Raw,F,Open,Yes
7,Kelly Tonini,,MA,60,58.8,,40,105,112.5,117.5,117.5,62.5,67.5,-72.5,67.5,125,132.5,142.5,142.5,327.5,,,,SBD,Raw,F,Open,Yes
8,Elin Henderlight,,WA,60,58,,24,112.5,117.5,-122.5,117.5,60,62.5,-65,62.5,127.5,135,-140,135,315,,,,SBD,Raw,F,Open,Yes
9,Cheryl Stewart,,IL,60,58.8,,44,110,115,-125,115,57.5,60,62.5,62.5,115,122.5,130,130,307.5,,,,SBD,Raw,F,Open,Yes
10,Deborah Hatch,,ME,60,58,,58,90,95,100,100,60,62.5,-65,62.5,127.5,135,142.5,142.5,305,,,,SBD,Raw,F,Open,Yes
11,Becky Hammon,,MO,60,60,,52,110,-115,-115,110,57.5,60,-62.5,60,120,127.5,132.5,132.5,302.5,,,,SBD,Raw,F,Open,Yes
12,Michelle Carlson,,UT,60,59.3,,50,87.5,92.5,95,95,65,68.5,70,70,115,122.5,132.5,132.5,297.5,,,,SBD,Raw,F,Open,Yes
13,Tara Kittrell,,AR,60,58.7,,52,87.5,95,-100,95,50,55,-57.5,55,125,132.5,140,140,290,,,,SBD,Raw,F,Open,Yes
14,Stephanie Moyer,,IN,60,57.8,,37,82.5,92.5,-95,92.5,50,55,-60,55,105,117.5,-127.5,117.5,265,,,,SBD,Raw,F,Open,Yes
15,Kinsey Peterson,,IN,60,59.8,,27,80,87.5,-92.5,87.5,45,-47.5,47.5,47.5,115,-130,-130,115,250,,,,SBD,Raw,F,Open,Yes
1,Ashley Wilson #1,,IA,67.5,67,,25,152.5,162.5,167.5,167.5,77.5,82.5,85,85,197.5,210,220,220,472.5,,,,SBD,Raw,F,Open,Yes
2,Grace Gill,,AR,67.5,66.5,,21,-170,170,175,175,82.5,87.5,92.5,92.5,172.5,-180,-188,172.5,440,,,,SBD,Raw,F,Open,Yes
3,Luna Bruno,,OR,67.5,66.8,,31,140,142.5,152.5,152.5,95,-100,-100,95,157.5,167.5,175,175,422.5,,,,SBD,Raw,F,Open,Yes
4,Mia Gorkowski,,IL,67.5,64.8,,29,127.5,137.5,-142.5,137.5,65,70,-72.5,70,165,175,-182.5,175,382.5,,,,SBD,Raw,F,Open,Yes
5,Amanda Jeffers,,WY,67.5,66.2,,35,125,-135,135,135,72.5,77.5,-80,77.5,155,170,-172.5,170,382.5,,,,SBD,Raw,F,Open,Yes
6,Kristie Mills,,MO,67.5,66.6,,36,130,-142.5,142.5,142.5,60,-62.5,62.5,62.5,172.5,-182.5,-182.5,172.5,377.5,,,,SBD,Raw,F,Open,Yes
7,Elizabeth Sidwell,,IL,67.5,65.9,,37,135,142.5,150,150,67.5,-72.5,72.5,72.5,142.5,152.5,-162.5,152.5,375,,,,SBD,Raw,F,Open,Yes
8,Pa Ly,,FL,67.5,66.8,,33,122.5,132.5,140,140,60,65,70,70,140,152.5,160,160,370,,,,SBD,Raw,F,Open,Yes
9,Emily Hartley,,AZ,67.5,67.4,,33,112.5,-122.5,127.5,127.5,62.5,75,,75,137.5,150,160,160,362.5,,,,SBD,Raw,F,Open,Yes
10,Brianna Donatucci,,FL,67.5,64,,29,-120,120,-127.5,120,70,72.5,75,75,157.5,165,-170,165,360,,,,SBD,Raw,F,Open,Yes
11,Maria Fraschilla,,FL,67.5,66.8,,30,127.5,-137.5,137.5,137.5,60,-65,65,65,140,-150,-150,140,342.5,,,,SBD,Raw,F,Open,Yes
12,Carrie Blosser,,MO,67.5,65.2,,36,-107.5,-107.5,112.5,112.5,62.5,65,70,70,137.5,145,152.5,152.5,335,,,,SBD,Raw,F,Open,Yes
13,Lauri Brown,,IL,67.5,66.8,,44,105,112.5,120,120,57.5,62.5,-67.5,62.5,142.5,152.5,-160,152.5,335,,,,SBD,Raw,F,Open,Yes
14,Michelle Duong,,FL,67.5,65,,26,107.5,-117.5,117.5,117.5,60,-65,-65,60,137.5,145,155,155,332.5,,,,SBD,Raw,F,Open,Yes
15,Natalie Smith,,OR,67.5,63,,16,102.5,110,115,115,62.5,65,-67.5,65,125,130,137.5,137.5,317.5,,,,SBD,Raw,F,Open,Yes
16,Jessica McKenzie,,MO,67.5,63.6,,26,-107.5,110,120,120,62.5,-65,-70,62.5,110,117.5,-125,117.5,300,,,,SBD,Raw,F,Open,Yes
17,Jennifer Darling,,OR,67.5,67,,48,95,100,-105,100,47.5,50,52.5,52.5,125,132.5,137.5,137.5,290,,,,SBD,Raw,F,Open,Yes
18,Mya Jenkins,,MO,67.5,64.2,,23,95,97.5,102.5,102.5,52.5,55,-57.5,55,122.5,-130,-130,122.5,280,,,,SBD,Raw,F,Open,Yes
19,Chelsea Evers,,OR,67.5,66,,32,100,-105,-107.5,100,47.5,50,52.5,52.5,112.5,120,127.5,127.5,280,,,,SBD,Raw,F,Open,Yes
20,Megan Dickerson,,MO,67.5,67,,34,-72.5,80,-82.5,80,65,70,-72.5,70,115,122.5,125,125,275,,,,SBD,Raw,F,Open,Yes
1,Brittany Kussman,,MO,75,72.8,,38,142.5,150,155,155,67.5,70,-72.5,70,175,185,190,190,415,,,,SBD,Raw,F,Open,Yes
2,Sally Goldman,,CA,75,74.2,,59,135,147.5,155,155,70,75,-80,75,152.5,162.5,172.5,172.5,402.5,,,,SBD,Raw,F,Open,Yes
3,Morgan Holzer,,IA,75,74.4,,27,137.5,145,-147.5,145,-77.5,-80,80,80,155,165,-175,165,390,,,,SBD,Raw,F,Open,Yes
4,Claire Raleigh,,WA,75,72.4,,38,117.5,-122.5,-122.5,117.5,67.5,70,-72.5,70,170,177.5,-185,177.5,365,,,,SBD,Raw,F,Open,Yes
5,Chanel Wade,,MO,75,73.4,,31,110,120,130,130,60,65,70,70,150,165,,165,365,,,,SBD,Raw,F,Open,Yes
6,Kelly Findlay,,VA,75,71.8,,33,105,112.5,117.5,117.5,70,75,80,80,152.5,162.5,-170,162.5,360,,,,SBD,Raw,F,Open,Yes
7,Olivia Doucette,,CA,75,74.6,,24,120,130,-135,130,60,-65,-65,60,122.5,137.5,-142.5,137.5,327.5,,,,SBD,Raw,F,Open,Yes
8,Sarah Gonzalez,,CA,75,73.7,,36,125,-135,-137.5,125,57.5,-60,60,60,130,-140,-140,130,315,,,,SBD,Raw,F,Open,Yes
9,Patricia Donald,,MA,75,70.1,,60,97.5,102.5,-105.5,102.5,62.5,-65,-65,62.5,117.5,125,-130,125,290,,,,SBD,Raw,F,Open,Yes
DQ,Ileana Guzman,,CT,75,74.4,,36,-130,-130,-130,,50,60,-70,60,,,,,,,,,SBD,Raw,F,Open,Yes
1,Liliya Shtikel,,WA,82.5,80.8,,33,152.5,162.5,-170,162.5,97.5,-102.5,-102.5,97.5,182.5,-192.5,-192.5,182.5,442.5,,,,SBD,Raw,F,Open,Yes
2,Shelby Weaver,,DC,82.5,78.6,,26,122.5,130,137.5,137.5,70,75,-80,75,145,157.5,177.5,177.5,390,,,,SBD,Raw,F,Open,Yes
3,Sonya Wood,,IL,82.5,79.8,,47,-135,135,-140,135,85,-90,-90,85,155,162.5,167.5,167.5,387.5,,,,SBD,Raw,F,Open,Yes
4,Alisha Hedrick,,IL,82.5,79.8,,25,135,145,-150,145,60,65,-67.5,65,147.5,160,167.5,167.5,377.5,,,,SBD,Raw,F,Open,Yes
5,Emily Cabaniss,,WA,82.5,81,,31,-130,130,-137.5,130,67.5,72.5,75,75,147.5,155,160,160,365,,,,SBD,Raw,F,Open,Yes
6,Ashley Russo,,MI,82.5,81.6,,38,122.5,-132.5,-132.5,122.5,65,67.5,72.5,72.5,160,165,-175,165,360,,,,SBD,Raw,F,Open,Yes
7,Brooklynne Messer,,KY,82.5,82.4,,21,-130,130,-135,130,65,70,-75,70,150,-155,-155,150,350,,,,SBD,Raw,F,Open,Yes
8,Terri Schreiber,,MI,82.5,81.6,,51,107.5,115,122.5,122.5,65,72.5,75,75,120,132.5,-140,132.5,330,,,,SBD,Raw,F,Open,Yes
1,Cydney Bushue,,KS,90,88.7,,26,192.5,202.5,-208.5,202.5,107.5,112.5,-115,112.5,192.5,205,211,211,526,,,,SBD,Raw,F,Open,Yes
2,Micaila Minnix,,UT,90,88.4,,27,137.5,145,-152.5,145,100,105,110,110,175,202.5,-210,202.5,457.5,,,,SBD,Raw,F,Open,Yes
3,Brittany Turner,,DC,90,84.8,,31,135,137.5,140,140,80,85,87.5,87.5,167.5,177.5,-182.5,177.5,405,,,,SBD,Raw,F,Open,Yes
4,Conswella Bennett,,GA,90,88.4,,49,115,125,135,135,72.5,-80,80,80,155,162.5,170,170,385,,,,SBD,Raw,F,Open,Yes
5,Zoe McDaniel,,MO,90,88.1,,23,125,135,140,140,65,70,-80,70,155,167.5,-177.5,167.5,377.5,,,,SBD,Raw,F,Open,Yes
6,Vanessa Haynes,,TX,90,88.6,,39,125,130,-135,130,70,75,-77.5,75,140,152.5,-162.5,152.5,357.5,,,,SBD,Raw,F,Open,Yes
DQ,Jean Humphrey,,AL,90,88.6,,44,-135,-135,-135,,-82.5,82.5,-87.5,82.5,,,,,,,,,SBD,Raw,F,Open,Yes
1,LaTosha Cleaver,,TX,100,94.4,,43,130,-142.5,-142.5,130,92.5,100,-102.5,100,200,215,-227.5,215,445,,,,SBD,Raw,F,Open,Yes
2,Katy Deckard,,NC,100,99.3,,36,150,157.5,-165,157.5,80,-85,85,85,180,190,-202.5,190,432.5,,,,SBD,Raw,F,Open,Yes
3,Amber Burns,,KS,100,94.6,,34,130,142.5,-155,142.5,82.5,90,-95,90,160,-175,-175,160,392.5,,,,SBD,Raw,F,Open,Yes
4,Chandra Watson,,WY,100,94.6,,34,-142.5,142.5,147.5,147.5,72.5,77.5,80,80,130,135,140,140,367.5,,,,SBD,Raw,F,Open,Yes
DQ,Sarah Webb,,TX,100,99.4,,32,155,162.5,-167.5,162.5,95,-100,-100,95,,,,,,,,,SBD,Raw,F,Open,Yes
1,Abby Kuchno,,MO,110,108.4,,26,167.5,175,182.5,182.5,90,95,-100,95,190,200,207.5,207.5,485,,,,SBD,Raw,F,Open,Yes
2,Rebecca Green,,MO,110,109.4,,24,157.5,165,170,170,72.5,-77.5,-77.5,72.5,135,-142.5,145,145,387.5,,,,SBD,Raw,F,Open,Yes
3,Heather Racine,,IN,110,108.6,,37,122.5,-130,-130,122.5,67.5,72.5,-75,72.5,147.5,157.5,-165,157.5,352.5,,,,SBD,Raw,F,Open,Yes
DQ,Britteny Raynor,,CA,110,106.4,,34,-160,-160,-160,,60,65,-67.5,65,175,185,195,195,,,,,SBD,Raw,F,Open,Yes
1,Roslyn Danford,,UT,110+,120.4,,36,130,137.5,150,150,85,-92.5,92.5,92.5,172.5,182.5,197.5,197.5,440,,,,SBD,Raw,F,Open,Yes
2,Carina Mone,,NC,110+,126,,40,150,157.5,-162.5,157.5,97.5,102.5,105,105,150,160,165,165,427.5,,,,SBD,Raw,F,Open,Yes
DQ,Bonnie Huckeby,,IN,110+,113.8,,26,-192.5,-192.5,-192.5,,,85,92.5,92.5,162.5,175,182.5,182.5,,,,,SBD,Raw,F,Open,Yes
DQ,Tamara Guadagnoli,,PA,110+,125,,48,-172.5,-172.5,-172.5,,101,102.5,-105,102.5,155,160,170,170,,,,,SBD,Raw,F,Open,Yes
1,Laura Haering,,WI,48,46.8,,43,90,-100.5,100.5,100.5,55,-60.5,60.5,60.5,105,-115,115,115,276,,,125.5,SBD,Raw,F,Masters 40-44,Yes
2,Jessica Iuga,,CA,48,46.8,,41,65,70,72.5,72.5,35,37.5,40,40,97.5,105,107.5,107.5,220,,,,SBD,Raw,F,Masters 40-44,Yes
1,Astrid Girolamo,,NY,56,55.5,,41,117.5,122.5,127.5,127.5,72.5,77.5,-80,77.5,142.5,152.5,-158,152.5,357.5,,,,SBD,Raw,F,Masters 40-44,Yes
1,Judy Oberlander,,CA,56,55,,59,102.5,108,110,110,52.5,57.5,-60.5,57.5,125,-137.5,137.5,137.5,305,,,,SBD,Raw,F,Masters 55-59,Yes
2,Yvette Romasko,,TX,56,54.8,,57,80,85,-87.5,85,60.5,65,-67.5,65,110,115,-120,115,265,,,,SBD,Raw,F,Masters 55-59,Yes
1,Becky Rich,,MO,60,59.2,,41,125,-132.5,132.5,132.5,85,92.5,-95.5,92.5,125,140,-147.5,140,365,,,,SBD,Raw,F,Masters 40-44,Yes
2,Kelly Tonini,,MA,60,58.8,,40,105,112.5,117.5,117.5,62.5,67.5,-72.5,67.5,125,132.5,142.5,142.5,327.5,,,,SBD,Raw,F,Masters 40-44,Yes
3,Cheryl Stewart,,IL,60,58.8,,44,110,115,-125,115,57.5,60,62.5,62.5,115,122.5,130,130,307.5,,,,SBD,Raw,F,Masters 40-44,Yes
4,Amanda Lopez,,NM,60,59.6,,43,92.5,95,-100,95,47.5,50,52.5,52.5,105,107.5,110,110,257.5,,,,SBD,Raw,F,Masters 40-44,Yes
1,Heather Campbell,,OR,60,59.4,,52,92.5,100,105,105,62.5,67.5,-69,67.5,130,140,145,145,317.5,,,,SBD,Raw,F,Masters 50-54,Yes
2,Becky Hammon,,MO,60,60,,52,110,-115,-115,110,57.5,60,-62.5,60,120,127.5,132.5,132.5,302.5,,,,SBD,Raw,F,Masters 50-54,Yes
3,Michelle Carlson,,UT,60,59.3,,50,87.5,92.5,95,95,65,68.5,70,70,115,122.5,132.5,132.5,297.5,,,,SBD,Raw,F,Masters 50-54,Yes
4,Tara Kittrell,,AR,60,58.7,,52,87.5,95,-100,95,50,55,-57.5,55,125,132.5,140,140,290,,,,SBD,Raw,F,Masters 50-54,Yes
1,Sharon Bohling,,IN,60,58.9,,59,115,122.5,130.5,130.5,67.5,72.5,76,76,145,155,-162.5,155,361.5,,,,SBD,Raw,F,Masters 55-59,Yes
2,Deborah Hatch,,ME,60,58,,58,90,95,100,100,60,62.5,-65,62.5,127.5,135,142.5,142.5,305,,,,SBD,Raw,F,Masters 55-59,Yes
1,Carole Aldrich,,CA,60,60,,76,47.5,-50,-50,47.5,-32.5,32.5,37.5,37.5,-65,65,70,70,155,,,,SBD,Raw,F,Masters 75-79,Yes
1,Lauri Brown,,IL,67.5,66.8,,44,105,112.5,120,120,57.5,62.5,-67.5,62.5,142.5,152.5,-160,152.5,335,,,,SBD,Raw,F,Masters 40-44,Yes
DQ,Melissa Cohoe,Canada,,67.5,67.4,,40,-75,-75,75,75,-52.5,-52.5,-52.5,,115,122.5,-125,122.5,,,,,SBD,Raw,F,Masters 40-44,Yes
1,Tatania Emmick,,IA,67.5,66.3,,45,-125,-130,130,130,60,62.5,-65,62.5,145,-152.5,-152.5,145,337.5,,,,SBD,Raw,F,Masters 45-49,Yes
2,Jennifer Darling,,OR,67.5,67,,48,95,100,-105,100,47.5,50,52.5,52.5,125,132.5,137.5,137.5,290,,,,SBD,Raw,F,Masters 45-49,Yes
1,Hope Hamer,,MO,67.5,67.1,,50,77.5,-82.5,-82.5,77.5,47.5,52.5,-55,52.5,115,120,122.5,122.5,252.5,,,,SBD,Raw,F,Masters 50-54,Yes
DQ,Sandra Harts,,IN,67.5,60.65,,56,-80,-85,-85,,42.5,45,-50,45,102.5,110,-115,110,,,,,SBD,Raw,F,Masters 55-59,Yes
1,Kay Walden,,KS,67.5,67,,62,115,122.5,-130.5,122.5,57.5,62.5,-65,62.5,127.5,140,145,145,330,,,,SBD,Raw,F,Masters 60-64,Yes
2,Christine Fox,,MO,67.5,67,,64,55,60,-65,60,42.5,-45,-45,42.5,90,95,-100,95,197.5,,,,SBD,Raw,F,Masters 60-64,Yes
DQ,Valarie Akerson,,IN,67.5,66.9,,63,-52.5,52.5,-62.5,52.5,-40,-42.5,-42.5,,,,,,,,,,SBD,Raw,F,Masters 60-64,Yes
1,Tiffany Boccia,,FL,75,74.8,,41,122.5,-132.5,132.5,132.5,57.5,60,-65,60,120,127.5,-135,127.5,320,,,,SBD,Raw,F,Masters 40-44,Yes
2,Michelle Mitchell,,OH,75,72.8,,44,102.5,110,-117.5,110,57.5,60,-62.5,60,115,125,137.5,137.5,307.5,,,,SBD,Raw,F,Masters 40-44,Yes
1,Tobey Hasegawa,,MA,75,71.2,,49,102.5,110,-117.5,110,70,75,77.5,77.5,150,160,-170,160,347.5,,,,SBD,Raw,F,Masters 45-49,Yes
2,Monica Martinez,,TX,75,69.8,,46,-115,120,122.5,122.5,52.5,57.5,-60,57.5,140,145,-152.5,145,325,,,,SBD,Raw,F,Masters 45-49,Yes
3,Teresa Oldenburger,Canada,,75,72,,48,102.5,110,115.5,115.5,45,-52.5,-60,45,115,130,150,150,310.5,,,,SBD,Raw,F,Masters 45-49,Yes
1,Sally Goldman,,CA,75,74.2,,59,135,147.5,155,155,70,75,-80,75,152.5,162.5,172.5,172.5,402.5,,,,SBD,Raw,F,Masters 55-59,Yes
2,Lori Wortmann,,MO,75,74.9,,56,-75,-75,75,75,42.5,-47.5,-47.5,42.5,102.5,115,122.5,122.5,240,,,,SBD,Raw,F,Masters 55-59,Yes
1,Patricia Donald,,MA,75,70.1,,60,97.5,102.5,-105.5,102.5,62.5,-65,-65,62.5,117.5,125,-130,125,290,,,,SBD,Raw,F,Masters 60-64,Yes
1,Sonya Wood,,IL,82.5,79.8,,47,-135,135,-140,135,85,-90,-90,85,155,162.5,167.5,167.5,387.5,,,,SBD,Raw,F,Masters 45-49,Yes
1,Terri Schreiber,,MI,82.5,81.6,,51,107.5,115,122.5,122.5,65,72.5,75,75,120,132.5,-140,132.5,330,,,,SBD,Raw,F,Masters 50-54,Yes
DQ,Jean Humphrey,,AL,90,88.6,,44,-135,-135,-135,,-82.5,82.5,-87.5,82.5,,,,,,,,,SBD,Raw,F,Masters 40-44,Yes
1,Conswella Bennett,,GA,90,88.4,,49,115,125,135,135,72.5,-80,80,80,155,162.5,170,170,385,,,,SBD,Raw,F,Masters 45-49,Yes
1,Shari Langrall,,WV,90,87.6,,51,115,122.5,127.5,127.5,72.5,-77.5,77.5,77.5,160,170,175,175,380,,,177.5,SBD,Raw,F,Masters 50-54,Yes
2,Brenda Newell,,NM,90,87.9,,53,-122.5,-127.5,127.5,127.5,57.5,60,62.5,62.5,115,125,-137.5,125,315,,,,SBD,Raw,F,Masters 50-54,Yes
DQ,Lisa Klaus,,IL,90,84.5,,51,-85,-85,85,85,-82.5,-87.5,-87.5,,132.5,142.5,150,150,,,,,SBD,Raw,F,Masters 50-54,Yes
1,LaTosha Cleaver,,TX,100,94.4,,43,130,-142.5,-142.5,130,92.5,100,-102.5,100,200,215,-227.5,215,445,,,,SBD,Raw,F,Masters 40-44,Yes
1,Sheryl Malinowski,Canada,,100,93.5,,47,135,-140,-140,135,75,77.5,-82.5,77.5,160,-167.5,-167.5,160,372.5,,,,SBD,Raw,F,Masters 45-49,Yes
1,Wendy Carlisle,,MI,100,98.9,,54,107.5,-112.5,112.5,112.5,62.5,65,-67.5,65,150,-155,-157.5,150,327.5,,,,SBD,Raw,F,Masters 50-54,Yes
1,Monique Clark,,OR,100,98.6,,62,60,-80,80,80,50,-55,-57.5,50,117.5,130,-137.5,130,260,,,,SBD,Raw,F,Masters 60-64,Yes
1,Susan Ryan-Vollmar,,MA,110,107,,58,110,-115,117.5,117.5,60,-62.5,-62.5,60,127.5,-140,-142.5,127.5,305,,,,SBD,Raw,F,Masters 55-59,Yes
1,Carina Mone,,NC,110+,126,,40,150,157.5,-162.5,157.5,97.5,102.5,105,105,150,160,165,165,427.5,,,,SBD,Raw,F,Masters 40-44,Yes
DQ,Tamara Guadagnoli,,PA,110+,125,,48,-172.5,-172.5,-172.5,,101,102.5,-105,102.5,155,160,170,170,,,,,SBD,Raw,F,Masters 45-49,Yes
1,Dylen Parke,,IL,60,59.4,,17,100,115,125,125,60,70,77.5,77.5,170,185,-200,185,387.5,,,,SBD,Raw,M,Juniors 15-19,Yes
1,Shandler Bawa,,CA,67.5,66.1,,16,-130,-130,130,130,77.5,82.5,-85,82.5,-220,-220,220,220,432.5,,,,SBD,Raw,M,Juniors 15-19,Yes
1,Nason Emerson,,MO,75,71.9,,18,-215,215,-228.5,215,140,143,-147.5,143,215,-227.5,-227.5,215,573,,,,SBD,Raw,M,Juniors 15-19,Yes
2,Elias Vargas #1,,NM,75,72.5,,17,160,170,-185,170,115,-127.5,-127.5,115,235,250,-275,250,535,,,,SBD,Raw,M,Juniors 15-19,Yes
DQ,Michael McLaughlin,,GA,75,73.2,,16,125,137.5,-142.5,137.5,95,102.5,107.5,107.5,-252.5,,,,,,,,SBD,Raw,M,Juniors 15-19,Yes
1,Matthias Cash,,IN,75,74.7,,22,242.5,255,267.5,267.5,145,152.5,157.5,157.5,270,287.5,302.5,302.5,727.5,,,,SBD,Raw,M,Juniors 20-23,Yes
2,Ezra Newell,,NM,75,74.1,,21,212.5,222.5,-232.5,222.5,140,145,-150,145,245,260,-272.5,260,627.5,,,,SBD,Raw,M,Juniors 20-23,Yes
3,Seth Hodder,,MO,75,73,,21,180,190,195,195,122.5,-127.5,135,135,240,260,267.5,267.5,597.5,,,,SBD,Raw,M,Juniors 20-23,Yes
4,Shiv Patel,,LA,75,75,,23,-160,160,-170,160,95,-102.5,,95,215,-230,-230,215,470,,,,SBD,Raw,M,Juniors 20-23,Yes
1,Collin Jostes,,MO,82.5,78.1,,18,150,160,172.5,172.5,105,112.5,-120,112.5,200,215,230,230,515,,,,SBD,Raw,M,Juniors 15-19,Yes
DQ,Eli Pieper,,WA,82.5,76.3,,18,-210,,,,,,,,,,,,,,,,SBD,Raw,M,Juniors 15-19,Yes
1,Nicholas Grigg,,MI,82.5,80.1,,22,195,205,212.5,212.5,127.5,135,140,140,225,235,240,240,592.5,,,,SBD,Raw,M,Juniors 20-23,Yes
2,Connor Narlock,,MN,82.5,81.1,,20,197.5,-202.5,202.5,202.5,-145,145,152.5,152.5,210,220,-227.5,220,575,,,,SBD,Raw,M,Juniors 20-23,Yes
1,Conor Warshawsky,,CA,90,85.3,,19,185,-195,-200,185,90,95,-100,95,215,227.5,235,235,515,,,,SBD,Raw,M,Juniors 15-19,Yes
DQ,Maxim Bocseri,,WA,90,83.6,,18,-210,-220,-220,,100,105,110,110,240,250,-255,250,,,,,SBD,Raw,M,Juniors 15-19,Yes
1,Cole Kryshak,,NY,90,89.1,,22,212.5,227.5,-230,227.5,193.5,198,-202.5,198,227.5,247.5,-272.5,247.5,673,,,,SBD,Raw,M,Juniors 20-23,Yes
2,Brent Ritschard,,WI,90,89.1,,22,227.5,237.5,242.5,242.5,140,-147.5,-147.5,140,265,272.5,-277.5,272.5,655,,,,SBD,Raw,M,Juniors 20-23,Yes
3,Joseph Shepherd,,NE,90,86.2,,23,192.5,-205,205,205,135,-142.5,-142.5,135,-287.5,287.5,-300,287.5,627.5,,,,SBD,Raw,M,Juniors 20-23,Yes
4,Kaleb Glore,,MO,90,87.8,,22,207.5,215,227.5,227.5,145,-152.5,-152.5,145,230,245,-252.5,245,617.5,,,,SBD,Raw,M,Juniors 20-23,Yes
1,Gavin McDill,,IL,100,96.7,,19,275,290.5,293,293,177.5,187.5,192.5,192.5,280,292.5,-297.5,292.5,778,,,,SBD,Raw,M,Juniors 15-19,Yes
1,Anthony Rutledge,,KY,100,96.8,,21,247.5,265,-277.5,265,192.5,205,-210,205,275,295,-302.5,295,765,,,,SBD,Raw,M,Juniors 20-23,Yes
2,Antonio De Marco,,IL,100,99.9,,20,260,270,,270,147.5,155,-160,155,240,250,-257.5,250,675,,,,SBD,Raw,M,Juniors 20-23,Yes
3,Eric Brubaker,,IL,100,99.5,,21,245,250,257.5,257.5,152.5,160,165,165,232.5,242.5,250,250,672.5,,,,SBD,Raw,M,Juniors 20-23,Yes
4,Maddox Lane,,NC,100,98.3,,22,227.5,245,257.5,257.5,137.5,145,152.5,152.5,215,230,-245,230,640,,,,SBD,Raw,M,Juniors 20-23,Yes
5,Geoff Fegan,,IN,100,97.8,,23,205,-222.5,227.5,227.5,105,115,-125,115,205,222.5,235,235,577.5,,,,SBD,Raw,M,Juniors 20-23,Yes
1,Michael Rodriguez #17,,NY,110,101,,23,250,257.5,-267.5,257.5,162.5,165,-170,165,295,300,305,305,727.5,,,,SBD,Raw,M,Juniors 20-23,Yes
2,Alaric Martin,,MI,110,107.6,,21,-222.5,222.5,-235,222.5,-162.5,-162.5,162.5,162.5,262.5,275,-290,275,660,,,,SBD,Raw,M,Juniors 20-23,Yes
3,Ronald Madrey,,IL,110,106.3,,23,222.5,235,242.5,242.5,142.5,-150,150,150,225,232.5,240,240,632.5,,,,SBD,Raw,M,Juniors 20-23,Yes
1,Nicholas Perry,,NC,125,116.7,,23,245,272.5,287.5,287.5,165,170,-182.5,170,247.5,262.5,275,275,732.5,,,,SBD,Raw,M,Juniors 20-23,Yes
2,Noah Pate,,AL,125,115.2,,22,230,242.5,-250,242.5,135,142.5,145,145,250,260,-270,260,647.5,,,,SBD,Raw,M,Juniors 20-23,Yes
3,Joshua Schuetz,,WI,125,121.7,,21,185,192.5,202.5,202.5,-137.5,-137.5,137.5,137.5,-215,215,230,230,570,,,,SBD,Raw,M,Juniors 20-23,Yes
1,Joshua Orugboh,,MN,140,136.4,,23,265,275,282.5,282.5,175,182.5,190,190,275,282.5,-290,282.5,755,,200,,SBD,Raw,M,Juniors 20-23,Yes
2,Hunter Shae,,MT,140,127.7,,21,-185,195,-210,195,110,120,-125,120,210,225,240,240,555,,,,SBD,Raw,M,Juniors 20-23,Yes
1,Brad Leonard,,OH,140+,158.6,,18,252.5,-260,-260,252.5,165,-170,170,170,265,272.5,277.5,277.5,700,,,,SBD,Raw,M,Juniors 15-19,Yes
1,Matthew Eldridge,,NY,140+,149,,23,332.5,345,-365,345,190,202.5,-210,202.5,265,275,-295,275,822.5,,,,SBD,Raw,M,Juniors 20-23,Yes
2,Jancarlos Perez,,FL,140+,147,,23,-292.5,292.5,-297.5,292.5,142.5,-155,-160,142.5,232.5,-242.5,-255,232.5,667.5,,,,SBD,Raw,M,Juniors 20-23,Yes
1,Drew Coffey #1,,OR,56,55.6,,26,150,157.5,162.5,162.5,87.5,92.5,97.5,97.5,160,170,175,175,435,,,,SBD,Raw,M,Open,Yes
1,Tevin Pham,,IA,67.5,67.4,,26,200,-210,212.5,212.5,137.5,142.5,147.5,147.5,230,240,-247.5,240,600,,,,SBD,Raw,M,Open,Yes
2,Mikal Wagner,,MO,67.5,65.7,,33,185,195,200,200,120,125,-130,125,215,227.5,-232.5,227.5,552.5,,,,SBD,Raw,M,Open,Yes
3,Michael Burns #1,,OH,67.5,67.5,,27,170,185,-195,185,102.5,115,-122.5,115,215,230,-240,230,530,,,,SBD,Raw,M,Open,Yes
1,Matthias Cash,,IN,75,74.7,,22,242.5,255,267.5,267.5,145,152.5,157.5,157.5,270,287.5,302.5,302.5,727.5,,,,SBD,Raw,M,Open,Yes
2,Ezra Newell,,NM,75,74.1,,21,212.5,222.5,-232.5,222.5,140,145,-150,145,245,260,-272.5,260,627.5,,,,SBD,Raw,M,Open,Yes
3,Justin Parker,,MO,75,73.9,,30,217.5,-227.5,227.5,227.5,132.5,-140,140,140,235,242.5,-252.5,242.5,610,,,,SBD,Raw,M,Open,Yes
4,James Wells,,VT,75,71.1,,27,200,212.5,-217.5,212.5,142.5,150,152.5,152.5,227.5,237.5,240,240,605,,,,SBD,Raw,M,Open,Yes
5,Ryan Kuhlmann,,AL,75,74,,37,195,207.5,-212.5,207.5,120,122.5,-125,122.5,255,-267.5,-267.5,255,585,,,,SBD,Raw,M,Open,Yes
6,Ethan Garcia #1,,MI,75,74,,24,195,205,-210,205,125,127.5,,127.5,230,245,-255,245,577.5,,,,SBD,Raw,M,Open,Yes
7,Nicholas Nelson,,CA,75,72.4,,28,155,165,170,170,125,135,142.5,142.5,190,200,212.5,212.5,525,,,,SBD,Raw,M,Open,Yes
8,Adam Holmes #3,,CA,75,73.4,,29,150,155,160,160,112.5,117.5,122.5,122.5,165,177.5,185,185,467.5,,,,SBD,Raw,M,Open,Yes
9,Justin Back,,IN,75,68.5,,31,150,-160,-160,150,115,120,-125,120,192.5,-200,-205,192.5,462.5,,,,SBD,Raw,M,Open,Yes
10,Joshua Garris,,MO,75,74.2,,37,155,-165,-165,155,-100,-102.5,102.5,102.5,182.5,195,202.5,202.5,460,,,,SBD,Raw,M,Open,Yes
DQ,Gabriel Youngquist,,TX,75,74.3,,24,207.5,215,222.5,222.5,110,115,117.5,117.5,-250,-250,-257.5,,,,,,SBD,Raw,M,Open,Yes
1,Sean Wagner,,IL,82.5,81.8,,29,222.5,-237.5,-237.5,222.5,137.5,-147.5,-147.5,137.5,265,285,-300,285,645,,,,SBD,Raw,M,Open,Yes
2,Azriel Domingo,,WA,82.5,82,,29,187.5,197.5,207.5,207.5,140,150,-155,150,240,255,265,265,622.5,,,,SBD,Raw,M,Open,Yes
3,Taylor Shuey,,IN,82.5,82.2,,30,227.5,235,240,240,120,125,-132.5,125,237.5,245,257.5,257.5,622.5,,,,SBD,Raw,M,Open,Yes
4,Nicholas Grigg,,MI,82.5,80.1,,22,195,205,212.5,212.5,127.5,135,140,140,225,235,240,240,592.5,,,,SBD,Raw,M,Open,Yes
5,Connor Narlock,,MN,82.5,81.1,,20,197.5,-202.5,202.5,202.5,-145,145,152.5,152.5,210,220,-227.5,220,575,,,,SBD,Raw,M,Open,Yes
6,Tim Cook,,PA,82.5,80.2,,39,182.5,187.5,192.5,192.5,115,-120,-125,115,215,227.5,-240,227.5,535,,,,SBD,Raw,M,Open,Yes
7,Sean Cooper,,IN,82.5,82.2,,24,185,-190,-190,185,-115,115,117.5,117.5,230,-237.5,-240,230,532.5,,,,SBD,Raw,M,Open,Yes
8,Chaz Ganey,,NC,82.5,80.4,,26,162.5,170,180,180,110,115,120,120,200,212.5,-217.5,212.5,512.5,,,,SBD,Raw,M,Open,Yes
9,Nicholas Tiller,,OR,82.5,80.8,,35,170,175,-185,175,115,122.5,125,125,180,-192.5,-192.5,180,480,,,,SBD,Raw,M,Open,Yes
DQ,Eli Pieper,,WA,82.5,76.3,,18,-210,,,,,,,,,,,,,,,,SBD,Raw,M,Open,Yes
DQ,Austin Keffeler,,SD,82.5,81.1,,31,-202.5,-222.5,,,,,,,,,,,,,,,SBD,Raw,M,Open,Yes
DQ,Gary Pratt #1,,IA,82.5,82.2,,30,207.5,217.5,-227.5,217.5,-127.5,-130,-132.5,,250,-265,265,265,,,,,SBD,Raw,M,Open,Yes
1,Tim Wermeling,,WI,90,88.7,,32,195,220,240,240,162.5,170,175,175,-300,300,320,320,735,,,,SBD,Raw,M,Open,Yes
2,Levi Duncan,,MO,90,88.4,,28,252.5,270,-280,270,155,-165,-165,155,272.5,290,-300,290,715,,,,SBD,Raw,M,Open,Yes
3,Kirk Whittenberg,,NC,90,89.5,,40,225,240.5,-251,240.5,190,200,-205,200,255,272.5,-287.5,272.5,713,,,,SBD,Raw,M,Open,Yes
4,John Schmitz,,MO,90,89.8,,33,220,230,235,235,152.5,157.5,-162.5,157.5,277.5,287.5,297.5,297.5,690,,,,SBD,Raw,M,Open,Yes
5,Bryant Blackmon,,TX,90,89,,24,235,242.5,250,250,145,150,-152.5,150,247.5,260,272.5,272.5,672.5,,,,SBD,Raw,M,Open,Yes
6,Brent Ritschard,,WI,90,89.1,,22,227.5,237.5,242.5,242.5,140,-147.5,-147.5,140,265,272.5,-277.5,272.5,655,,,,SBD,Raw,M,Open,Yes
7,David Mealer,,IL,90,88.7,,38,225,235,-240,235,140,147.5,155,155,232.5,245,255,255,645,,,,SBD,Raw,M,Open,Yes
8,Joseph Shepherd,,NE,90,86.2,,23,192.5,-205,205,205,135,-142.5,-142.5,135,-287.5,287.5,-300,287.5,627.5,,,,SBD,Raw,M,Open,Yes
9,Carter Alcock,,AZ,90,87.9,,25,205,215,-220,215,127.5,137.5,-142.5,137.5,252.5,265,-275,265,617.5,,,,SBD,Raw,M,Open,Yes
10,Monty Murphy,,IL,90,88,,46,197.5,202.5,-205,202.5,155,162.5,-165.5,162.5,220,232.5,240,240,605,,,,SBD,Raw,M,Open,Yes
11,Nikhil Karulkar,,WA,90,88.3,,36,207.5,217.5,225,225,127.5,132.5,135,135,205,215,-227.5,215,575,,,,SBD,Raw,M,Open,Yes
12,Randy Fry,,WI,90,88.1,,47,195,202.5,-207.5,202.5,160,-162.5,,160,210,-220,,210,572.5,,,,SBD,Raw,M,Open,Yes
13,Dustin Haraway,,AL,90,87.3,,28,187.5,200,-205,200,130,137.5,-142.5,137.5,207.5,222.5,232.5,232.5,570,,,,SBD,Raw,M,Open,Yes
14,Anthony Marrocchio,,MA,90,87.2,,29,150,162.5,167.5,167.5,120,125,-130,125,237.5,245,-257.5,245,537.5,,,,SBD,Raw,M,Open,Yes
DQ,Maxim Bocseri,,WA,90,83.6,,18,-210,-220,-220,,100,105,110,110,240,250,-255,250,,,,,SBD,Raw,M,Open,Yes
DQ,Zack Helmkampf,,MO,90,88,,24,-205,-217.5,-217.5,,130,142.5,145,145,220,235,245,245,,,,,SBD,Raw,M,Open,Yes
1,Gavin McDill,,IL,100,96.7,,19,275,290.5,293,293,177.5,187.5,192.5,192.5,280,292.5,-297.5,292.5,778,,,,SBD,Raw,M,Open,Yes
2,Skip Jones,,MO,100,98.6,,34,260,282.5,285,285,157.5,175,-182.5,175,285,310,-317.5,310,770,,,,SBD,Raw,M,Open,Yes
3,Jacob Parker,,MO,100,99.1,,33,267.5,-282.5,282.5,282.5,147.5,155,160,160,275,295,-302.5,295,737.5,,,,SBD,Raw,M,Open,Yes
4,Standerek Duree,,MO,100,100,,31,250,-267.5,-267.5,250,150,-157.5,162.5,162.5,290,305,-307.5,305,717.5,,,,SBD,Raw,M,Open,Yes
5,Tommy Koniewicz,,IL,100,98.1,,24,-250,-265,265,265,152.5,-157.5,-157.5,152.5,250,265,-272.5,265,682.5,,,,SBD,Raw,M,Open,Yes
6,Antonio De Marco,,IL,100,99.9,,20,260,270,,270,147.5,155,-160,155,240,250,-257.5,250,675,,,,SBD,Raw,M,Open,Yes
7,Anthony Koch,,WI,100,99.9,,29,232.5,242.5,-252.5,242.5,145,-152.5,-157.5,145,255,267.5,275,275,662.5,,,,SBD,Raw,M,Open,Yes
8,Nicholas Tansor,,WI,100,99.8,,27,227.5,-240,-245,227.5,155,165,-170,165,245,262.5,,262.5,655,,,,SBD,Raw,M,Open,Yes
9,Evan Miller #1,,MO,100,99.8,,27,217.5,230,-235,230,137.5,145,150,150,242.5,260,-275,260,640,,,,SBD,Raw,M,Open,Yes
10,Chance Wolfe,,MO,100,96.1,,28,210,220,-227.5,220,120,127.5,-132.5,127.5,265,285,-302.5,285,632.5,,,,SBD,Raw,M,Open,Yes
11,Anthony Paneral,,IA,100,99.2,,31,217.5,220,227.5,227.5,137.5,142.5,145,145,247.5,-265,-265,247.5,620,,,,SBD,Raw,M,Open,Yes
12,Geoff Fegan,,IN,100,97.8,,23,205,-222.5,227.5,227.5,105,115,-125,115,205,222.5,235,235,577.5,,,,SBD,Raw,M,Open,Yes
13,Stefan Herron,,MO,100,91.4,,30,170,180,-187.5,180,135,-142.5,-142.5,135,230,240,-245,240,555,,,,SBD,Raw,M,Open,Yes
DQ,Alex Brooks,,AL,100,97.8,,31,-255,-255,-255,,160,165,170,170,-255,-255,-255,,,,,,SBD,Raw,M,Open,Yes
DQ,Noah Kim,,VA,100,98.1,,25,270,-282.5,-282.5,270,145,150,160,160,-295,-295,-295,,,,,,SBD,Raw,M,Open,Yes
1,Lamar Holmes,,LA,110,108,,31,272.5,280,285,285,180,182.5,185,185,317.5,325,332.5,332.5,802.5,,,,SBD,Raw,M,Open,Yes
2,Phillip Posley,,NC,110,106.2,,28,267.5,277.5,287.5,287.5,-172.5,172.5,182.5,182.5,302.5,320,-332.5,320,790,,,,SBD,Raw,M,Open,Yes
3,Otto Dobretsberger,,TX,110,107.9,,37,235,-250,265,265,-200,200,-220.5,200,280,305,,305,770,,,,SBD,Raw,M,Open,Yes
4,Spencer Barnes,,IL,110,107.5,,26,292.5,-305,-305,292.5,160,165,-170,165,305,-317.5,-317.5,305,762.5,,,,SBD,Raw,M,Open,Yes
5,Kendall Zuber,,MO,110,108.2,,34,-240,240,250,250,165,175,-182.5,175,277.5,290,-302.5,290,715,,,,SBD,Raw,M,Open,Yes
6,Cas'Sean Eccles,,WA,110,107.5,,35,250,265,-270,265,165,170,-177.5,170,267.5,-275,-275,267.5,702.5,,,,SBD,Raw,M,Open,Yes
7,PT Campbell,,MO,110,109.9,,31,-262.5,262.5,280,280,-150,160,-170,160,-247.5,260,-265,260,700,,,,SBD,Raw,M,Open,Yes
8,Joel Bowers,,IN,110,107,,46,247.5,-255,-260,247.5,-165,172.5,175,175,-247.5,255,262.5,262.5,685,,,,SBD,Raw,M,Open,Yes
9,Michael Gilfix,,TX,110,107.6,,42,-192.5,192.5,-200,192.5,172.5,177.5,182.5,182.5,262.5,270,-277.5,270,645,,,,SBD,Raw,M,Open,Yes
10,Ronald Madrey,,IL,110,106.3,,23,222.5,235,242.5,242.5,142.5,-150,150,150,225,232.5,240,240,632.5,,,,SBD,Raw,M,Open,Yes
11,Riley Sanchez,,WY,110,100.6,,27,215,225,-235,225,150,165,-170,165,215,230,237.5,237.5,627.5,,,,SBD,Raw,M,Open,Yes
12,Alonzo Sandoval,,WY,110,108.2,,33,195,207.5,217.5,217.5,-125,125,140,140,237.5,255,262.5,262.5,620,,,,SBD,Raw,M,Open,Yes
13,Kevin Kelley,,WI,110,107,,36,205,215,-220,215,150,157.5,-162.5,157.5,230,-240,-240,230,602.5,,,,SBD,Raw,M,Open,Yes
14,Will Van Soelen,,IA,110,102.3,,26,185,192.5,202.5,202.5,130,137.5,145,145,205,212.5,222.5,222.5,570,,,,SBD,Raw,M,Open,Yes
15,Sean Lease,,MO,110,103.2,,32,172.5,182.5,187.5,187.5,125,-132.5,-132.5,125,227.5,237.5,-247.5,237.5,550,,,,SBD,Raw,M,Open,Yes
16,Todd Pfander,,WI,110,101.4,,62,142.5,152.5,157.5,157.5,87.5,92.5,-97.5,92.5,165,175,185,185,435,,,,SBD,Raw,M,Open,Yes
DQ,Bill Wyatt,,AR,110,108.2,,56,242.5,-247.5,,242.5,-152.5,-152.5,-152.5,,-275,-275,,,,,,,SBD,Raw,M,Open,Yes
1,Daniel Wade #1,,MO,125,115.7,,30,320,-332.5,335,335,200,205,212.5,212.5,345,-360,,345,892.5,,,,SBD,Raw,M,Open,Yes
2,Taylor Duncan,,NE,125,124.8,,24,-320,320,330,330,172.5,180,185,185,290,305,-320,305,820,,,,SBD,Raw,M,Open,Yes
3,Dohnte Thompson,,SC,125,121,,33,237.5,250,262.5,262.5,167.5,175,-182.5,175,267.5,285,295,295,732.5,,,,SBD,Raw,M,Open,Yes
4,Skylar Buss,,IA,125,118.6,,28,255,265,270,270,-167.5,167.5,-172.5,167.5,262.5,270,290,290,727.5,,,,SBD,Raw,M,Open,Yes
5,Elijah Weller,,IL,125,122.7,,26,220,-222.5,-227.5,220,145,150,-160,150,252.5,270,-287.5,270,640,,,,SBD,Raw,M,Open,Yes
6,Chris Hintz,,WY,125,123.4,,36,205,220,230,230,150,-165,-165,150,-250,260,-270,260,640,,,,SBD,Raw,M,Open,Yes
7,Brian Cain,,OR,125,116.3,,32,207.5,220,230,230,145,152.5,-160,152.5,190,200,210,210,592.5,,,,SBD,Raw,M,Open,Yes
8,Anthony Rini,,OH,125,120.8,,43,205,-215,215,215,-165,165,-172.5,165,200,210,-227.5,210,590,,,,SBD,Raw,M,Open,Yes
9,John Boudreau,,MO,125,120.7,,50,115,130,140,140,120,125,-127.5,125,185,197.5,210,210,475,,,,SBD,Raw,M,Open,Yes
1,Tomas Zayas III,,IL,140,138.7,,31,272.5,-285,285,285,192.5,200,210,210,320,335,-352.5,335,830,,,,SBD,Raw,M,Open,Yes
2,Joshua Orugboh,,MN,140,136.4,,23,265,275,282.5,282.5,175,182.5,190,190,275,282.5,-290,282.5,755,,200,,SBD,Raw,M,Open,Yes
3,Zach Barcroft,,IL,140,130.2,,32,230,-242.5,242.5,242.5,177.5,-182.5,,177.5,265,275,,275,695,,,,SBD,Raw,M,Open,Yes
4,Ryan Foray,,VA,140,132.8,,34,215,-230,-230,215,185,190,-195,190,255,-272.5,-272.5,255,660,,,,SBD,Raw,M,Open,Yes
1,Matthew Eldridge,,NY,140+,149,,23,332.5,345,-365,345,190,202.5,-210,202.5,265,275,-295,275,822.5,,,,SBD,Raw,M,Open,Yes
2,Kyle Franke #1,,TX,140+,183.2,,31,-292.5,292.5,-310,292.5,170,180,187.5,187.5,290,-307.5,-307.5,290,770,,,,SBD,Raw,M,Open,Yes
3,Andrew Morkin,Canada,,140+,160.8,,36,250,267.5,295,295,-155,155,-182.5,155,250,-267.5,275,275,725,,,,SBD,Raw,M,Open,Yes
4,Jancarlos Perez,,FL,140+,147,,23,-292.5,292.5,-297.5,292.5,142.5,-155,-160,142.5,232.5,-242.5,-255,232.5,667.5,,,,SBD,Raw,M,Open,Yes
DQ,Troy Nunley,,CO,60,59.7,,48,145,-155,-155,145,-100,100,-107.5,100,-167.5,-167.5,-167.5,,,,,,SBD,Raw,M,Masters 45-49,Yes
1,Gordon Santee,,NV,60,58.6,,76,50,55,60,60,50,57.5,61,61,105,116,122.5,122.5,243.5,,,125,SBD,Raw,M,Masters 75-79,Yes
1,Prem Prakash,,VT,67.5,66.1,,63,92.5,100,102.5,102.5,82.5,85,87.5,87.5,120,125,130,130,320,,,,SBD,Raw,M,Masters 60-64,Yes
1,Merlin Dennis,,MO,75,74.2,,48,-130,130,145,145,102.5,105,110,110,192.5,202.5,-212.5,202.5,457.5,,,,SBD,Raw,M,Masters 45-49,Yes
1,Fred Lamas,,TX,75,73.8,,65,130,140.5,145,145,80,85,87.5,87.5,162.5,170,177,177,409.5,,,,SBD,Raw,M,Masters 65-69,Yes
2,David Webb #7,,AL,75,74,,65,117.5,120,-122.5,120,100.5,102.5,-105,102.5,150,157.5,162.5,162.5,385,,,,SBD,Raw,M,Masters 65-69,Yes
1,Jeremiah Moore,,IA,82.5,81.3,,41,185,195,202.5,202.5,117.5,130,-137.5,130,202.5,222.5,-232.5,222.5,555,,,,SBD,Raw,M,Masters 40-44,Yes
DQ,Michael Palmer,,AL,82.5,82.3,,49,-180,-180,-180,,97.5,105,-115,105,200,217.5,-227.5,217.5,,,,,SBD,Raw,M,Masters 45-49,Yes
1,Sean Williams #1,,NV,82.5,79.5,,51,127.5,130,,130,145.5,-150,-150,145.5,170,175,182.5,182.5,458,,,,SBD,Raw,M,Masters 50-54,Yes
2,George Linder,,OH,82.5,79.2,,54,140,147.5,-150,147.5,102.5,105,107.5,107.5,187.5,195,202.5,202.5,457.5,,,,SBD,Raw,M,Masters 50-54,Yes
3,John Lake #1,,MO,82.5,78.5,,50,135,145,-160,145,85,90,97.5,97.5,182.5,-202.5,202.5,202.5,445,,,,SBD,Raw,M,Masters 50-54,Yes
1,Tom Newell,,NM,82.5,80.4,,59,165,-175,175,175,130,135,-140,135,195,202.5,210,210,520,,,,SBD,Raw,M,Masters 55-59,Yes
1,R Steve Pebsworth,,VA,82.5,79.7,,61,172.5,192.5,-205,192.5,122.5,133,-137.5,133,217.5,-230,-230,217.5,543,,,,SBD,Raw,M,Masters 60-64,Yes
DQ,Eric Hanson,,OR,82.5,81.8,,68,-112.5,-112.5,-112.5,,80,-87.5,-87.5,80,140,147.5,152.5,152.5,,,,,SBD,Raw,M,Masters 65-69,Yes
1,Barry Hunlock,,OH,82.5,75.5,,75,65,-72.5,72.5,72.5,62.5,-67.5,-67.5,62.5,105,117.5,-120,117.5,252.5,,,,SBD,Raw,M,Masters 75-79,Yes
1,Kirk Whittenberg,,NC,90,89.5,,40,225,240.5,-251,240.5,190,200,-205,200,255,272.5,-287.5,272.5,713,,,,SBD,Raw,M,Masters 40-44,Yes
2,Christopher McKenzie,,WV,90,87.8,,40,250,262.5,-267.5,262.5,140,147.5,-155,147.5,272.5,285,-287.5,285,695,,,,SBD,Raw,M,Masters 40-44,Yes
3,Josh McMillian,,MO,90,89.5,,41,190,200,-205,200,-125,125,130,130,205,215,227.5,227.5,557.5,,,,SBD,Raw,M,Masters 40-44,Yes
1,Monty Murphy,,IL,90,88,,46,197.5,202.5,-205,202.5,155,162.5,-165.5,162.5,220,232.5,240,240,605,,,,SBD,Raw,M,Masters 45-49,Yes
2,Randy Fry,,WI,90,88.1,,47,195,202.5,-207.5,202.5,160,-162.5,,160,210,-220,,210,572.5,,,,SBD,Raw,M,Masters 45-49,Yes
1,Daniel Breton,,MA,90,87.1,,56,-182.5,190,197.5,197.5,110,115,120,120,220,235,242.5,242.5,560,,,,SBD,Raw,M,Masters 55-59,Yes
1,Robert Lee,,MO,90,88.6,,67,-102.5,102.5,-112.5,102.5,72.5,75,77.5,77.5,117.5,122.5,142.5,142.5,322.5,,,,SBD,Raw,M,Masters 65-69,Yes
1,Matt Huey,,TX,100,96.4,,40,-180,180,185,185,140,147.5,-150,147.5,205,215,-220,215,547.5,,,,SBD,Raw,M,Masters 40-44,Yes
DQ,Devin Marsh,,OR,100,95.6,,51,227.5,232.5,240,240,147.5,-152.5,-152.5,147.5,-245,-245,,,,,,,SBD,Raw,M,Masters 50-54,Yes
1,Alan Koch,,MT,100,98,,58,180,190,-200,190,125,132.5,135,135,175,190,197.5,197.5,522.5,,,,SBD,Raw,M,Masters 55-59,Yes
2,Ray Marple,,MO,100,92.1,,59,167.5,-172.5,-172.5,167.5,137.5,142.5,-145,142.5,195,202.5,210,210,520,,,,SBD,Raw,M,Masters 55-59,Yes
3,Roger Sherman,,IL,100,97.8,,58,165,172.5,-180,172.5,132.5,137.5,140,140,165,-175,-177.5,165,477.5,,,,SBD,Raw,M,Masters 55-59,Yes
1,Scott Sciaretta #1,,MT,100,95.5,,61,180,190,197.5,197.5,130,140.5,-145,140.5,217.5,230,-243,230,568,,,,SBD,Raw,M,Masters 60-64,Yes
2,Derek Sherlock,,CO,100,100,,60,170,-190,190,190,110,-118,-118,110,210,222.5,230,230,530,,,,SBD,Raw,M,Masters 60-64,Yes
3,Dale Therrien,,IL,100,98.3,,60,-142.5,-145,145,145,107.5,-112.5,-112.5,107.5,185,195,200,200,452.5,,,,SBD,Raw,M,Masters 60-64,Yes
1,Kevin Crosby,,TN,100,97,,70,-120,-120,120,120,-80,80,-92.5,80,142.5,157.5,170,170,370,,,,SBD,Raw,M,Masters 70-74,Yes
1,Michael Gilfix,,TX,110,107.6,,42,-192.5,192.5,-200,192.5,172.5,177.5,182.5,182.5,262.5,270,-277.5,270,645,,,,SBD,Raw,M,Masters 40-44,Yes
1,Michael Eaton,,MD,110,107.8,,46,250,-275,280,280,180,192.5,197.5,197.5,305,345,360,360,837.5,,,,SBD,Raw,M,Masters 45-49,Yes
2,Joel Bowers,,IN,110,107,,46,247.5,-255,-260,247.5,-165,172.5,175,175,-247.5,255,262.5,262.5,685,,,,SBD,Raw,M,Masters 45-49,Yes
1,Billy Rymiszewski,,VA,110,107.7,,54,215,230,-240.5,230,140,145,-150,145,255,265,270,270,645,,,,SBD,Raw,M,Masters 50-54,Yes
1,Ennis White,,TX,110,108.4,,58,235,-245,245,245,172.5,-177.5,-177.5,172.5,277.5,287.5,295,295,712.5,,,,SBD,Raw,M,Masters 55-59,Yes
DQ,Bill Wyatt,,AR,110,108.2,,56,242.5,-247.5,,242.5,-152.5,-152.5,-152.5,,-275,-275,,,,,,,SBD,Raw,M,Masters 55-59,Yes
1,Michael Thompson,,MO,110,108.5,,62,-182.5,-182.5,182.5,182.5,135,-140,-140,135,217.5,232.5,,232.5,550,,,,SBD,Raw,M,Masters 60-64,Yes
2,David Sloan #1,,MI,110,105.8,,61,-160,-160,160,160,125,-136,136,136,220,232.5,240,240,536,,,,SBD,Raw,M,Masters 60-64,Yes
3,Todd Pfander,,WI,110,101.4,,62,142.5,152.5,157.5,157.5,87.5,92.5,-97.5,92.5,165,175,185,185,435,,,,SBD,Raw,M,Masters 60-64,Yes
1,Anthony Rini,,OH,125,120.8,,43,205,-215,215,215,-165,165,-172.5,165,200,210,-227.5,210,590,,,,SBD,Raw,M,Masters 40-44,Yes
1,Greg McClarin,,CO,125,112.8,,49,217.5,240,252.5,252.5,165,175,-185,175,240,252.5,-262.5,252.5,680,,,,SBD,Raw,M,Masters 45-49,Yes
1,Michael Burns #3,,MI,125,121,,52,-230,-230,230,230,147.5,-157.5,157.5,157.5,225,227.5,230,230,617.5,,,,SBD,Raw,M,Masters 50-54,Yes
2,George Smutzer,,NY,125,123.6,,52,130,137.5,142.5,142.5,150,157.5,-165,157.5,165,170,180,180,480,,,,SBD,Raw,M,Masters 50-54,Yes
3,John Boudreau,,MO,125,120.7,,50,115,130,140,140,120,125,-127.5,125,185,197.5,210,210,475,,,,SBD,Raw,M,Masters 50-54,Yes
1,Matthew Day,,OK,140,132.4,,52,-175,175,185,185,125,-132.5,132.5,132.5,197.5,207.5,212.5,212.5,530,,,,SBD,Raw,M,Masters 50-54,Yes
DQ,David Perry,,NC,140+,157.3,,41,-305,305,-322.5,305,-202.5,-202.5,-202.5,,-230,-230,,,,,,,SBD,Raw,M,Masters 40-44,Yes
1,Mike Shae,,MT,140+,168.4,,52,237.5,252.5,-265,252.5,155,170,-177.5,170,245,-255,255,255,677.5,,,,SBD,Raw,M,Masters 50-54,Yes
1,Kera Thiele,,MO,52,50,,17,82.5,-87.5,87.5,87.5,42.5,-47.5,47.5,47.5,82.5,90,95,95,230,,,97.5,SBD,Wraps,F,Juniors 15-19,Yes
1,Alexa Cooke,,AZ,56,54.6,,23,105,-112.5,-112.5,105,55,57.5,-60,57.5,130,-140,145,145,307.5,,,,SBD,Wraps,F,Juniors 20-23,Yes
1,Hannah Duda,,MO,67.5,65.2,,22,155,-157.5,162.5,162.5,72.5,75,-77.5,75,175,182.5,-185,182.5,420,,,,SBD,Wraps,F,Juniors 20-23,Yes
1,Melissa Liskowski,,CO,52,50.8,,40,-110,110,-120,110,52.5,57.5,-60,57.5,120,-130,130,130,297.5,,,,SBD,Wraps,F,Open,Yes
2,Linda Badillo,,OK,52,49.5,,41,75,80,85,85,62.5,65,-68,65,105,115,-122.5,115,265,,,,SBD,Wraps,F,Open,Yes
DQ,Dawn Harvey,,IN,52,50.8,,42,-107.5,-107.5,-107.5,,57.5,-60,-60,57.5,122.5,130,-132.5,130,,,,,SBD,Wraps,F,Open,Yes
1,Monica Gillespie,,MO,56,55.4,,55,90,-97.5,97.5,97.5,45,47.5,-50,47.5,100,110,-118,110,255,,,,SBD,Wraps,F,Open,Yes
1,Hannah Duda,,MO,67.5,65.2,,22,155,-157.5,162.5,162.5,72.5,75,-77.5,75,175,182.5,-185,182.5,420,,,,SBD,Wraps,F,Open,Yes
2,Tanya Corbett,,VA,67.5,64.6,,42,-107.5,107.5,117.5,117.5,57.5,62.5,-67.5,62.5,-122.5,127.5,137.5,137.5,317.5,,,,SBD,Wraps,F,Open,Yes
DQ,Sarah Meyer,,OK,67.5,66.6,,29,-167.5,-167.5,-167.5,,82.5,87.5,92.5,92.5,-187.5,-190,-190,,,,,,SBD,Wraps,F,Open,Yes
1,Sheena Hodges,,MO,75,73.6,,39,155,162.5,167.5,167.5,87.5,-92.5,92.5,92.5,167.5,177.5,182.5,182.5,442.5,,,,SBD,Wraps,F,Open,Yes
2,Jennifer Schwardt,,IL,75,74.4,,44,120,-125,-125,120,60,65,-67.5,65,130,137.5,-145,137.5,322.5,,,,SBD,Wraps,F,Open,Yes
3,Lesley Hines,,FL,75,74.5,,35,-120,120,-127.5,120,62.5,67.5,70,70,-125,130,-137.5,130,320,,,,SBD,Wraps,F,Open,Yes
DQ,Lis Saunders,,GA,75,75,,43,-132.5,-132.5,-132.5,,,,,,,,,,,,,,SBD,Wraps,F,Open,Yes
1,Katrina Curtis,,FL,82.5,82.2,,27,157.5,172.5,-180,172.5,87.5,100,107.5,107.5,162.5,177.5,182.5,182.5,462.5,,,,SBD,Wraps,F,Open,Yes
2,Kimberly Brown,,CA,82.5,82.2,,56,115,-125,125,125,82.5,-92.5,-92.5,82.5,150,162.5,175.5,175.5,383,,,,SBD,Wraps,F,Open,Yes
1,Christina Ullman,,OH,90,87.4,,51,-145,145,-155,145,77.5,82.5,-85,82.5,155,163,-167.5,163,390.5,,,,SBD,Wraps,F,Open,Yes
1,Eileen Garris,,MO,100,97.6,,33,160,170,-180,170,95,100,102.5,102.5,182.5,197.5,205,205,477.5,,,210,SBD,Wraps,F,Open,Yes
2,Elizabeth Millan,,CA,100,99.8,,32,182.5,-200,-200,182.5,92.5,-105,-105,92.5,175,-192.5,-192.5,175,450,,,,SBD,Wraps,F,Open,Yes
1,Kristin Petrony,,TN,52,51.2,,44,92.5,100,110,110,52.5,-55,-55,52.5,127.5,-137.5,137.5,137.5,300,,,,SBD,Wraps,F,Masters 40-44,Yes
2,Melissa Liskowski,,CO,52,50.8,,40,-110,110,-120,110,52.5,57.5,-60,57.5,120,-130,130,130,297.5,,,,SBD,Wraps,F,Masters 40-44,Yes
3,Linda Badillo,,OK,52,49.5,,41,75,80,85,85,62.5,65,-68,65,105,115,-122.5,115,265,,,,SBD,Wraps,F,Masters 40-44,Yes
DQ,Dawn Harvey,,IN,52,50.8,,42,-107.5,-107.5,-107.5,,57.5,-60,-60,57.5,122.5,130,-132.5,130,,,,,SBD,Wraps,F,Masters 40-44,Yes
1,Monica Gillespie,,MO,56,55.4,,55,90,-97.5,97.5,97.5,45,47.5,-50,47.5,100,110,-118,110,255,,,,SBD,Wraps,F,Masters 55-59,Yes
1,Shanda Guard,,TX,60,57.7,,65,95,100,-105,100,57.5,-62.5,-62.5,57.5,125,135,-140,135,292.5,,,,SBD,Wraps,F,Masters 65-69,Yes
1,Tanya Corbett,,VA,67.5,64.6,,42,-107.5,107.5,117.5,117.5,57.5,62.5,-67.5,62.5,-122.5,127.5,137.5,137.5,317.5,,,,SBD,Wraps,F,Masters 40-44,Yes
1,Jennifer Schwardt,,IL,75,74.4,,44,120,-125,-125,120,60,65,-67.5,65,130,137.5,-145,137.5,322.5,,,,SBD,Wraps,F,Masters 40-44,Yes
DQ,Lis Saunders,,GA,75,75,,43,-132.5,-132.5,-132.5,,,,,,,,,,,,,,SBD,Wraps,F,Masters 40-44,Yes
1,Kimberly Brown,,CA,82.5,82.2,,56,115,-125,125,125,82.5,-92.5,-92.5,82.5,150,162.5,175.5,175.5,383,,,,SBD,Wraps,F,Masters 55-59,Yes
1,Bernice Fuss,Canada,,82.5,76.4,,66,85,95,102.5,102.5,70,75.5,80,80,105,125,137.5,137.5,320,113,83,142.5,SBD,Wraps,F,Masters 65-69,Yes
1,Christina Ullman,,OH,90,87.4,,51,-145,145,-155,145,77.5,82.5,-85,82.5,155,163,-167.5,163,390.5,,,,SBD,Wraps,F,Masters 50-54,Yes
2,Lara Christie,Canada,,90,87.1,,53,110,120,130,130,55,62.5,-70,62.5,130,137.5,-145,137.5,330,,,,SBD,Wraps,F,Masters 50-54,Yes
1,Julie Daicoff,,KS,90,89,,64,-62.5,72.5,-75,72.5,42.5,47.5,-50,47.5,105,115,127.5,127.5,247.5,,,,SBD,Wraps,F,Masters 60-64,Yes
1,Luke House,,IA,67.5,66.5,,22,-190,190,-205,190,130,137.5,142.5,142.5,-200,200,215,215,547.5,,,,SBD,Wraps,M,Juniors 20-23,Yes
1,Brandon White #1,,OK,90,89.5,,22,210,215,217.5,217.5,-142.5,142.5,-145,142.5,245,-260,-260,245,605,,,,SBD,Wraps,M,Juniors 20-23,Yes
1,Lucas Pagano,,MO,100,94.5,,22,-225,225,240,240,65,102.5,125,125,230,-257.5,257.5,257.5,622.5,,,,SBD,Wraps,M,Juniors 20-23,Yes
1,Zach Brown #5,,TN,110,109.4,,23,-235,-235,235,235,147.5,-155,-155,147.5,235,245,255,255,637.5,,,,SBD,Wraps,M,Juniors 20-23,Yes
1,Adonis Stanwix,,KS,125,116.8,,23,267.5,-275,277.5,277.5,182.5,190,195.5,195.5,260,272.5,280,280,753,,,,SBD,Wraps,M,Juniors 20-23,Yes
1,Drew Ahhaitty,,OK,140,138,,23,312.5,-330,-330,312.5,202.5,215,-220,215,277.5,292.5,302.5,302.5,830,,,,SBD,Wraps,M,Juniors 20-23,Yes
2,Christian Williams #9,,MS,140,135.7,,20,-305,-305,305,305,142.5,150,-160,150,265,270,-275,270,725,,,,SBD,Wraps,M,Juniors 20-23,Yes
1,Daniel Huerta,,CA,140+,195.4,,19,220,230,245,245,140,160,167.5,167.5,-200,200,210,210,622.5,,,,SBD,Wraps,M,Juniors 15-19,Yes
1,Blake McCormick,,IL,140+,156.6,,23,290,-307.5,-307.5,290,172.5,182.5,-190,182.5,230,242.5,255,255,727.5,,,,SBD,Wraps,M,Juniors 20-23,Yes
1,Frankie Murrieta,,MO,67.5,67.5,,41,-165,165,170,170,115,-125,-125,115,160,,165,165,450,,,,SBD,Wraps,M,Open,Yes
1,Michael Courte,,NY,75,73.6,,26,190,200,-210,200,145,152.5,-160,152.5,200,212.5,222.5,222.5,575,,,,SBD,Wraps,M,Open,Yes
2,Matt Ingargiola,,MA,75,74.5,,28,185,-197.5,-205,185,112.5,120,125,125,180,190,200,200,510,,,,SBD,Wraps,M,Open,Yes
3,Kevin Kirby,,NC,75,71.8,,28,172.5,180,185,185,85,90,-95,90,200,-215,-215,200,475,,,,SBD,Wraps,M,Open,Yes
DQ,Meng Vang,,CA,75,74.9,,27,-245,-255,-255,,,,,,,,,,,,,,SBD,Wraps,M,Open,Yes
1,Joe Hays,,MN,82.5,80.8,,62,175,180,-182.5,180,105,112.5,,112.5,-205,210,227.5,227.5,520,,,,SBD,Wraps,M,Open,Yes
1,Thomas Moschner,,FL,90,88.9,,25,265,-280,-280,265,165,175,180,180,-282.5,282.5,300,300,745,,,,SBD,Wraps,M,Open,Yes
2,Matthew Burford,,AR,90,87.5,,25,237.5,250,-265,250,137.5,147.5,152.5,152.5,225,250,-257.5,250,652.5,,,,SBD,Wraps,M,Open,Yes
3,Brandon White #1,,OK,90,89.5,,22,210,215,217.5,217.5,-142.5,142.5,-145,142.5,245,-260,-260,245,605,,,,SBD,Wraps,M,Open,Yes
4,Dakota Britt,,KS,90,89.3,,27,212.5,-227.5,-227.5,212.5,-137.5,142.5,-150,142.5,210,225,,225,580,,,,SBD,Wraps,M,Open,Yes
5,Andrew Young #1,,NY,90,89.3,,35,190,-200,-200,190,125,-132.5,-132.5,125,-240,-240,240,240,555,,,,SBD,Wraps,M,Open,Yes
6,Bobby Brown,,AL,90,89.3,,40,175,185,,185,155,160.5,163,163,182.5,195,202.5,202.5,550.5,,165,,SBD,Wraps,M,Open,Yes
DQ,Tyler Arias,,MO,90,89,,34,-235,-235,-235,,-137.5,-137.5,,,,,,,,,,,SBD,Wraps,M,Open,Yes
DQ,John MacDonald #2,Canada,,90,89,,32,-325,-325,-325,,-125,-125,,,,,,,,,,,SBD,Wraps,M,Open,Yes
1,Michael Caputo #1,,FL,100,98.8,,35,-247.5,247.5,-260,247.5,165,175,-182.5,175,242.5,257.5,262.5,262.5,685,,,,SBD,Wraps,M,Open,Yes
2,Mike Johnson #1,,NY,100,98.1,,26,227.5,-247.5,-255,227.5,120,130,-135,130,240,265,280,280,637.5,,,,SBD,Wraps,M,Open,Yes
3,Henry Wight,,CA,100,94.4,,53,-230,230,-242.5,230,145,152.5,157.5,157.5,210,217.5,220,220,607.5,,,,SBD,Wraps,M,Open,Yes
4,Nathan Burford,,AR,100,99.3,,34,-282.5,-282.5,282.5,282.5,185,195,-200,195,75,,,75,552.5,,,,SBD,Wraps,M,Open,Yes
1,Zach Brown #5,,TN,110,109.4,,23,-235,-235,235,235,147.5,-155,-155,147.5,235,245,255,255,637.5,,,,SBD,Wraps,M,Open,Yes
1,Randy Ahhaitty,,OK,125,112.8,,27,-265,-265,265,265,-150,150,155,155,272.5,287.5,295,295,715,,,,SBD,Wraps,M,Open,Yes
1,Tyler Ernst,,MO,140,131.8,,32,282.5,292.5,300,300,165,172.5,177.5,177.5,290,302.5,-307.5,302.5,780,,,,SBD,Wraps,M,Open,Yes
2,Ben Gregg,,PA,140,131.4,,31,282.5,292.5,300,300,172.5,-182.5,-182.5,172.5,265,277.5,282.5,282.5,755,,,,SBD,Wraps,M,Open,Yes
3,Dennis Alegre,,CA,140,128.3,,57,-220,220,247.5,247.5,130,-152.5,-152.5,130,265,-292,-292,265,642.5,,,,SBD,Wraps,M,Open,Yes
DQ,Kody Medina,,KS,140,136.5,,29,-337.5,-337.5,-337.5,,,,,,325,-340.5,-340.5,325,,,,,SBD,Wraps,M,Open,Yes
1,Justin Wyms,,MO,140+,216.6,,24,-295,320,340,340,205,-215,-215,205,290,307.5,-320,307.5,852.5,,,,SBD,Wraps,M,Open,Yes
2,Daniel Huerta,,CA,140+,195.4,,19,220,230,245,245,140,160,167.5,167.5,-200,200,210,210,622.5,,,,SBD,Wraps,M,Open,Yes
1,Troy Nunley,,CO,60,59.7,,48,-145,145,-152.5,145,-100,-100,100,100,140,155,-160,155,400,,,,SBD,Wraps,M,Masters 45-49,Yes
1,Frankie Murrieta,,MO,67.5,67.5,,41,-165,165,170,170,115,-125,-125,115,160,,165,165,450,,,,SBD,Wraps,M,Masters 40-44,Yes
1,Ray Mack,,OK,75,74.8,,49,160,165,-170,165,95,100,-102.5,100,167.5,175,182.5,182.5,447.5,,,,SBD,Wraps,M,Masters 45-49,Yes
1,Russell Welch,,CA,82.5,81.9,,60,182.5,-192.5,-192.5,182.5,-120,120,-122.5,120,215,222.5,230,230,532.5,,,232.5,SBD,Wraps,M,Masters 60-64,Yes
2,Joe Hays,,MN,82.5,80.8,,62,175,180,-182.5,180,105,112.5,,112.5,-205,210,227.5,227.5,520,,,,SBD,Wraps,M,Masters 60-64,Yes
3,Larry Ivy,,NV,82.5,80.7,,64,155,-160,-160,155,85,-90,90,90,195,200,205,205,450,,,,SBD,Wraps,M,Masters 60-64,Yes
4,Bill Larkham,Canada,,82.5,81.5,,63,-145,-145,145,145,85,100,-105,100,185,190,195,195,440,,,197.5,SBD,Wraps,M,Masters 60-64,Yes
1,Roger Shaw,,FL,82.5,76.4,,77,-145,160,-170,160,82.5,88,92.5,92.5,185,-195,-205,185,437.5,,,,SBD,Wraps,M,Masters 75-79,Yes
1,Bobby Brown,,AL,90,89.3,,40,175,185,,185,155,160.5,163,163,182.5,195,202.5,202.5,550.5,,165,,SBD,Wraps,M,Masters 40-44,Yes
2,Lawrence Dolan,,IL,90,88.6,,42,-207.5,207.5,-227.5,207.5,125,-137.5,-137.5,125,207.5,-227.5,,207.5,540,,,,SBD,Wraps,M,Masters 40-44,Yes
1,Henry Wight,,CA,100,94.4,,53,-230,230,-242.5,230,145,152.5,157.5,157.5,210,217.5,220,220,607.5,,,,SBD,Wraps,M,Masters 50-54,Yes
1,Jesse Bowman,,MO,110,108.4,,40,235,-250,-250,235,140,145,-150,145,292.5,305,317.5,317.5,697.5,,,,SBD,Wraps,M,Masters 40-44,Yes
1,Jodie Mcclure,,AR,110,106.3,,56,-155,155,-172.5,155,105,-122.5,122.5,122.5,182.5,202.5,-220,202.5,480,,,,SBD,Wraps,M,Masters 55-59,Yes
1,Doug Pettibone,,MO,125,122.2,,52,-187.5,197.5,205,205,140,-145,145,145,185,197.5,205,205,555,,,,SBD,Wraps,M,Masters 50-54,Yes
1,Dennis Alegre,,CA,140,128.3,,57,-220,220,247.5,247.5,130,-152.5,-152.5,130,265,-292,-292,265,642.5,,,,SBD,Wraps,M,Masters 55-59,Yes
1,Jacob Van Camp,,MO,100,92.2,,19,-215,215,220,220,125,-140,-145,125,170,185,192.5,192.5,537.5,,,,SBD,Single-ply,M,Juniors 15-19,Yes
1,Robert Perez,,TX,82.5,81.3,,27,190,205,212.5,212.5,171,180,-188,180,215,225,-235,225,617.5,,,,SBD,Single-ply,M,Open,Yes
1,Jim Bell,,MO,100,97.8,,67,187.5,200,-210,200,107.5,-112.5,-112.5,107.5,142.5,178,-182.5,178,485.5,,,,SBD,Single-ply,M,Masters 65-69,Yes
1,JD Lindstrom,,OK,110,106.3,,47,-200,200,-205,200,137.5,162.5,-185,162.5,215,240,-270,240,602.5,,,,SBD,Single-ply,M,Masters 45-49,Yes
1,Katrina Ceria,,HI,52,50.8,,23,,,,,67.5,72.5,-77.5,72.5,,,,,72.5,,,,B,Raw,F,Juniors 20-23,Yes
1,Arissa Garcia,,HI,60,59.2,,19,,,,,70,-77.5,77.5,77.5,,,,,77.5,,,,B,Raw,F,Juniors 15-19,Yes
1,Ashley Pettibone,,MO,67.5,63.8,,17,,,,,55,57.5,60,60,,,,,60,,,,B,Raw,F,Juniors 15-19,Yes
1,Laura Haering,,WI,48,46.8,,43,,,,,55,-60.5,60.5,60.5,,,,,60.5,,,,B,Raw,F,Open,Yes
1,Katrina Ceria,,HI,52,50.8,,23,,,,,67.5,72.5,-77.5,72.5,,,,,72.5,,,,B,Raw,F,Open,Yes
2,Linda Badillo,,OK,52,49.5,,41,,,,,62.5,65,-68,65,,,,,65,,,,B,Raw,F,Open,Yes
1,Monica Gillespie,,MO,56,55.4,,55,,,,,45,47.5,-50,47.5,,,,,47.5,,,,B,Raw,F,Open,Yes
1,Becky Rich,,MO,60,59.2,,41,,,,,85,92.5,-95.5,92.5,,,,,92.5,,,,B,Raw,F,Open,Yes
2,Arissa Garcia,,HI,60,59.2,,19,,,,,70,-77.5,77.5,77.5,,,,,77.5,,,,B,Raw,F,Open,Yes
3,Elle Bandy,,IL,60,58.6,,35,,,,,75,-77.5,-77.5,75,,,,,75,,,,B,Raw,F,Open,Yes
4,Kayla Miller,,MO,60,56.8,,29,,,,,65,70,-75,70,,,,,70,,,,B,Raw,F,Open,Yes
5,Deborah Hatch,,ME,60,58,,58,,,,,60,62.5,-65,62.5,,,,,62.5,,,,B,Raw,F,Open,Yes
1,Luna Bruno,,OR,67.5,66.8,,31,,,,,95,-100,-100,95,,,,,95,,,,B,Raw,F,Open,Yes
2,Leslie Gurr,Canada,,67.5,63.2,,54,,,,,77.5,82.5,86,86,,,,,86,,87.5,,B,Raw,F,Open,Yes
3,Ashley Wilson #1,,IA,67.5,67,,25,,,,,77.5,82.5,85,85,,,,,85,,,,B,Raw,F,Open,Yes
4,Emily Hartley,,AZ,67.5,67.4,,33,,,,,62.5,75,,75,,,,,75,,,,B,Raw,F,Open,Yes
5,Jessica McKenzie,,MO,67.5,63.6,,26,,,,,62.5,-65,-70,62.5,,,,,62.5,,,,B,Raw,F,Open,Yes
1,Sheena Hodges,,MO,75,73.6,,39,,,,,87.5,-92.5,92.5,92.5,,,,,92.5,,,,B,Raw,F,Open,Yes
1,Sonya Wood,,IL,82.5,79.8,,47,,,,,85,-90,-90,85,,,,,85,,,,B,Raw,F,Open,Yes
2,Kimberly Brown,,CA,82.5,82.2,,56,,,,,82.5,-92.5,-92.5,82.5,,,,,82.5,,,,B,Raw,F,Open,Yes
1,Micaila Minnix,,UT,90,88.4,,27,,,,,100,105,110,110,,,,,110,,,,B,Raw,F,Open,Yes
2,Christina Ullman,,OH,90,87.4,,51,,,,,77.5,82.5,-85,82.5,,,,,82.5,,,,B,Raw,F,Open,Yes
1,Heather Racine,,IN,110,108.6,,37,,,,,67.5,72.5,-75,72.5,,,,,72.5,,,,B,Raw,F,Open,Yes
1,Tamara Guadagnoli,,PA,110+,125,,48,,,,,101,102.5,-105,102.5,,,,,102.5,,,,B,Raw,F,Open,Yes
1,Laura Haering,,WI,48,46.8,,43,,,,,55,-60.5,60.5,60.5,,,,,60.5,,,,B,Raw,F,Masters 40-44,Yes
1,Linda Badillo,,OK,52,49.5,,41,,,,,62.5,65,-68,65,,,,,65,,,,B,Raw,F,Masters 40-44,Yes
1,Judy Oberlander,,CA,56,55,,59,,,,,52.5,57.5,-60.5,57.5,,,,,57.5,,,,B,Raw,F,Masters 55-59,Yes
2,Monica Gillespie,,MO,56,55.4,,55,,,,,45,47.5,-50,47.5,,,,,47.5,,,,B,Raw,F,Masters 55-59,Yes
1,Becky Rich,,MO,60,59.2,,41,,,,,85,92.5,-95.5,92.5,,,,,92.5,,,,B,Raw,F,Masters 40-44,Yes
1,Sharon Bohling,,IN,60,58.9,,59,,,,,67.5,72.5,76,76,,,,,76,,,,B,Raw,F,Masters 55-59,Yes
2,Deborah Hatch,,ME,60,58,,58,,,,,60,62.5,-65,62.5,,,,,62.5,,,,B,Raw,F,Masters 55-59,Yes
1,Shanda Guard,,TX,60,57.7,,65,,,,,57.5,-62.5,-62.5,57.5,,,,,57.5,,,,B,Raw,F,Masters 65-69,Yes
1,Carole Aldrich,,CA,60,60,,76,,,,,-32.5,32.5,37.5,37.5,,,,,37.5,,,,B,Raw,F,Masters 75-79,Yes
DQ,Melissa Cohoe,Canada,,67.5,67.4,,40,,,,,-52.5,-52.5,-52.5,,,,,,,,,,B,Raw,F,Masters 40-44,Yes
1,Leslie Gurr,Canada,AB,67.5,63.2,,54,,,,,77.5,82.5,86,86,,,,,86,,87.5,,B,Raw,F,Masters 50-54,Yes
1,Monica Martinez,,TX,75,69.8,,46,,,,,52.5,57.5,-60,57.5,,,,,57.5,,,,B,Raw,F,Masters 45-49,Yes
1,Brenda Helmer,Canada,,75,74.2,,63,,,,,50,-55,-55,50,,,,,50,,,,B,Raw,F,Masters 60-64,Yes
1,Sonya Wood,,IL,82.5,79.8,,47,,,,,85,-90,-90,85,,,,,85,,,,B,Raw,F,Masters 45-49,Yes
1,Kimberly Brown,,CA,82.5,82.2,,56,,,,,82.5,-92.5,-92.5,82.5,,,,,82.5,,,,B,Raw,F,Masters 55-59,Yes
1,Bernice Fuss,Canada,,82.5,76.4,,66,,,,,70,75.5,80,80,,,,,80,,83,,B,Raw,F,Masters 65-69,Yes
1,Christina Ullman,,OH,90,87.4,,51,,,,,77.5,82.5,-85,82.5,,,,,82.5,,,,B,Raw,F,Masters 50-54,Yes
2,Lara Christie,Canada,,90,87.1,,53,,,,,55,62.5,-70,62.5,,,,,62.5,,,,B,Raw,F,Masters 50-54,Yes
DQ,Lisa Klaus,,IL,90,84.5,,51,,,,,-82.5,-87.5,-87.5,,,,,,,,,,B,Raw,F,Masters 50-54,Yes
1,Tamara Guadagnoli,,PA,110+,125,,48,,,,,101,102.5,-105,102.5,,,,,102.5,,,,B,Raw,F,Masters 45-49,Yes
1,Cole Kryshak,,NY,90,89.1,,22,,,,,193.5,198,-202.5,198,,,,,198,,,,B,Raw,M,Juniors 20-23,Yes
2,Brandon White #1,,OK,90,89.5,,22,,,,,-142.5,142.5,-145,142.5,,,,,142.5,,,,B,Raw,M,Juniors 20-23,Yes
1,Lucas Pagano,,MO,100,94.5,,22,,,,,65,102.5,125,125,,,,,125,,,,B,Raw,M,Juniors 20-23,Yes
1,Brad Leonard,,OH,140+,158.6,,18,,,,,165,-170,170,170,,,,,170,,,,B,Raw,M,Juniors 15-19,Yes
1,Alvin Morris,,MO,75,74.9,,38,,,,,172.5,-187.5,-187.5,172.5,,,,,172.5,,,,B,Raw,M,Open,Yes
2,Michael Courte,,NY,75,73.6,,26,,,,,145,152.5,-160,152.5,,,,,152.5,,,,B,Raw,M,Open,Yes
3,Ryan Kuhlmann,,AL,75,74,,37,,,,,120,122.5,-125,122.5,,,,,122.5,,,,B,Raw,M,Open,Yes
4,Gabriel Youngquist,,TX,75,74.3,,24,,,,,110,115,117.5,117.5,,,,,117.5,,,,B,Raw,M,Open,Yes
1,Drew Sherman,,IL,82.5,76.9,,25,,,,,137.5,145,147.5,147.5,,,,,147.5,,,,B,Raw,M,Open,Yes
2,Joe Hays,,MN,82.5,80.8,,62,,,,,105,112.5,,112.5,,,,,112.5,,,,B,Raw,M,Open,Yes
1,Tim Wermeling,,WI,90,88.7,,32,,,,,162.5,170,175,175,,,,,175,,,,B,Raw,M,Open,Yes
2,Bobby Brown,,AL,90,89.3,,40,,,,,155,160.5,163,163,,,,,163,,165,,B,Raw,M,Open,Yes
3,Monty Murphy,,IL,90,88,,46,,,,,155,162.5,-165.5,162.5,,,,,162.5,,,,B,Raw,M,Open,Yes
4,Randy Fry,,WI,90,88.1,,47,,,,,160,-162.5,,160,,,,,160,,,,B,Raw,M,Open,Yes
5,Brandon White #1,,OK,90,89.5,,22,,,,,-142.5,142.5,-145,142.5,,,,,142.5,,,,B,Raw,M,Open,Yes
1,Mark Henning,,KS,100,97.1,,44,,,,,175,182.5,-190,182.5,,,,,182.5,,,,B,Raw,M,Open,Yes
2,Henry Wight,,CA,100,94.4,,53,,,,,145,152.5,157.5,157.5,,,,,157.5,,,,B,Raw,M,Open,Yes
1,Michael Gilfix,,TX,110,107.6,,42,,,,,172.5,177.5,182.5,182.5,,,,,182.5,,,,B,Raw,M,Open,Yes
2,Joel Bowers,,IN,110,107,,46,,,,,-165,172.5,175,175,,,,,175,,,,B,Raw,M,Open,Yes
3,Todd Pfander,,WI,110,101.4,,62,,,,,87.5,92.5,-97.5,92.5,,,,,92.5,,,,B,Raw,M,Open,Yes
DQ,Bill Wyatt,,AR,110,108.2,,56,,,,,-152.5,-152.5,-152.5,,,,,,,,,,B,Raw,M,Open,Yes
1,Anthony Rini,,OH,125,120.8,,43,,,,,-165,165,-172.5,165,,,,,165,,,,B,Raw,M,Open,Yes
1,Ryan Foray,,VA,140,132.8,,34,,,,,185,190,-195,190,,,,,190,,,,B,Raw,M,Open,Yes
2,Ben Gregg,,PA,140,131.4,,31,,,,,172.5,-182.5,-182.5,172.5,,,,,172.5,,,,B,Raw,M,Open,Yes
1,Justin Wyms,,MO,140+,216.6,,24,,,,,205,-215,-215,205,,,,,205,,,,B,Raw,M,Open,Yes
1,Troy Nunley,,CO,60,59.7,,48,,,,,-100,100,-107.5,100,,,,,100,,,,B,Raw,M,Masters 45-49,Yes
2,Troy Nunley,,CO,60,59.7,,48,,,,,-100,-100,100,100,,,,,100,,,,B,Raw,M,Masters 45-49,Yes
1,Gordon Santee,,NV,60,58.6,,76,,,,,50,57.5,61,61,,,,,61,,,,B,Raw,M,Masters 75-79,Yes
1,Gerald Lindas,,WI,67.5,65.9,,86,,,,,82.5,85,,85,,,,,85,,,,B,Raw,M,Masters 80+,Yes
1,Ray Mack,,OK,75,74.8,,49,,,,,95,100,-102.5,100,,,,,100,,,,B,Raw,M,Masters 45-49,Yes
1,David Webb #7,,AL,75,74,,65,,,,,100.5,102.5,-105,102.5,,,,,102.5,,,,B,Raw,M,Masters 65-69,Yes
DQ,Amador Galvez,,CA,75,74.2,,71,,,,,-97.5,-97.5,-97.5,,,,,,,,,,B,Raw,M,Masters 70-74,Yes
1,Jeremiah Moore,,IA,82.5,81.3,,41,,,,,117.5,130,-137.5,130,,,,,130,,,,B,Raw,M,Masters 40-44,Yes
1,Sean Williams #1,,NV,82.5,79.5,,51,,,,,145.5,-150,-150,145.5,,,,,145.5,,,,B,Raw,M,Masters 50-54,Yes
1,Tom Newell,,NM,82.5,80.4,,59,,,,,130,135,-140,135,,,,,135,,,,B,Raw,M,Masters 55-59,Yes
1,Joe Hays,,MN,82.5,80.8,,62,,,,,105,112.5,,112.5,,,,,112.5,,,,B,Raw,M,Masters 60-64,Yes
DQ,Al Galvez,,CA,82.5,81.7,,66,,,,,-115,-125.5,-125.5,,,,,,,,,,B,Raw,M,Masters 65-69,Yes
1,Barry Hunlock,,OH,82.5,75.5,,75,,,,,62.5,-67.5,-67.5,62.5,,,,,62.5,,,,B,Raw,M,Masters 75-79,Yes
1,Bobby Brown,,AL,90,89.3,,40,,,,,155,160.5,163,163,,,,,163,,165,,B,Raw,M,Masters 40-44,Yes
1,Monty Murphy,,IL,90,88,,46,,,,,155,162.5,-165.5,162.5,,,,,162.5,,,,B,Raw,M,Masters 45-49,Yes
2,Randy Fry,,WI,90,88.1,,47,,,,,160,-162.5,,160,,,,,160,,,,B,Raw,M,Masters 45-49,Yes
1,Mark Henning,,KS,100,97.1,,44,,,,,175,182.5,-190,182.5,,,,,182.5,,,,B,Raw,M,Masters 40-44,Yes
2,Dan Bernard,,NC,100,97.4,,43,,,,,125,132.5,-140,132.5,,,,,132.5,,,,B,Raw,M,Masters 40-44,Yes
1,Antonio Pagano,,MO,100,99.9,,53,,,,,-147.5,155,160,160,,,,,160,,,,B,Raw,M,Masters 50-54,Yes
2,Henry Wight,,CA,100,94.4,,53,,,,,145,152.5,157.5,157.5,,,,,157.5,,,,B,Raw,M,Masters 50-54,Yes
1,Scott Sciaretta #1,,MT,100,95.5,,61,,,,,130,140.5,-145,140.5,,,,,140.5,,,,B,Raw,M,Masters 60-64,Yes
2,Derek Sherlock,,CO,100,100,,60,,,,,110,-118,-118,110,,,,,110,,,,B,Raw,M,Masters 60-64,Yes
1,Michael Gilfix,,TX,110,107.6,,42,,,,,172.5,177.5,182.5,182.5,,,,,182.5,,,,B,Raw,M,Masters 40-44,Yes
1,Joel Bowers,,IN,110,107,,46,,,,,-165,172.5,175,175,,,,,175,,,,B,Raw,M,Masters 45-49,Yes
2,Mark Jenkins,,CA,110,108.2,,46,,,,,127.5,-135,135,135,,,,,135,,,,B,Raw,M,Masters 45-49,Yes
1,Ennis White,,TX,110,108.4,,58,,,,,172.5,-177.5,-177.5,172.5,,,,,172.5,,,,B,Raw,M,Masters 55-59,Yes
DQ,Bill Wyatt,,AR,110,108.2,,56,,,,,-152.5,-152.5,-152.5,,,,,,,,,,B,Raw,M,Masters 55-59,Yes
1,Todd Pfander,,WI,110,101.4,,62,,,,,87.5,92.5,-97.5,92.5,,,,,92.5,,,,B,Raw,M,Masters 60-64,Yes
1,Anthony Rini,,OH,125,120.8,,43,,,,,-165,165,-172.5,165,,,,,165,,,,B,Raw,M,Masters 40-44,Yes
1,Michael Burns #3,,MI,125,121,,52,,,,,147.5,-157.5,157.5,157.5,,,,,157.5,,,,B,Raw,M,Masters 50-54,Yes
2,George Smutzer,,NY,125,123.6,,52,,,,,150,157.5,-165,157.5,,,,,157.5,,,,B,Raw,M,Masters 50-54,Yes
3,Doug Pettibone,,MO,125,122.2,,52,,,,,140,-145,145,145,,,,,145,,,,B,Raw,M,Masters 50-54,Yes
DQ,David Perry,,NC,140+,157.3,,41,,,,,-202.5,-202.5,-202.5,,,,,,,,,,B,Raw,M,Masters 40-44,Yes
1,Mike Shae,,MT,140+,168.4,,52,,,,,155,170,-177.5,170,,,,,170,,,,B,Raw,M,Masters 50-54,Yes
1,Donald Norton,,MO,140+,171.9,,65,,,,,152.5,-167.5,-167.5,152.5,,,,,152.5,,,,B,Raw,M,Masters 65-69,Yes
1,Robert Perez,,TX,82.5,81.3,,27,,,,,171,180,-188,180,,,,,180,,,,B,Single-ply,M,Open,Yes
1,JD Lindstrom,,OK,110,106.3,,47,,,,,137.5,162.5,-185,162.5,,,,,162.5,,,,B,Single-ply,M,Masters 45-49,Yes
1,Donald Norton,,MO,140+,171.9,,65,,,,,152.5,-157.5,157.5,157.5,,,,,157.5,,,,B,Single-ply,M,Masters 65-69,Yes
1,Katrina Ceria,,HI,52,50.8,,23,,,,,,,,,142.5,150,155,155,155,,,160,D,Raw,F,Juniors 20-23,Yes
1,Arissa Garcia,,HI,60,59.2,,19,,,,,,,,,140,147.5,155,155,155,,,,D,Raw,F,Juniors 15-19,Yes
1,Laura Haering,,WI,48,46.8,,43,,,,,,,,,105,-115,115,115,115,,,125.5,D,Raw,F,Open,Yes
1,Katrina Ceria,,HI,52,50.8,,23,,,,,,,,,142.5,150,155,155,155,,,160,D,Raw,F,Open,Yes
2,Komal Ashraf,,MO,52,51.2,,38,,,,,,,,,127.5,135,140,140,140,,,,D,Raw,F,Open,Yes
3,Linda Badillo,,OK,52,49.5,,41,,,,,,,,,105,115,-122.5,115,115,,,,D,Raw,F,Open,Yes
1,Molly Hendryx,,OR,56,55.6,,39,,,,,,,,,-180,182.5,187.5,187.5,187.5,,,,D,Raw,F,Open,Yes
2,Monica Gillespie,,MO,56,55.4,,55,,,,,,,,,100,110,-118,110,110,,,,D,Raw,F,Open,Yes
1,Amberly Kuhlmann,,AL,60,59,,37,,,,,,,,,162.5,177.5,-187.5,177.5,177.5,,,,D,Raw,F,Open,Yes
2,Elle Bandy,,IL,60,58.6,,35,,,,,,,,,155,-160,-160,155,155,,,,D,Raw,F,Open,Yes
3,Arissa Garcia,,HI,60,59.2,,19,,,,,,,,,140,147.5,155,155,155,,,,D,Raw,F,Open,Yes
4,Tara Kittrell,,AR,60,58.7,,52,,,,,,,,,125,132.5,140,140,140,,,,D,Raw,F,Open,Yes
1,Ashley Wilson #1,,IA,67.5,67,,25,,,,,,,,,197.5,210,220,220,220,,,,D,Raw,F,Open,Yes
2,Emily Hartley,,AZ,67.5,67.4,,33,,,,,,,,,137.5,150,160,160,160,,,,D,Raw,F,Open,Yes
DQ,Sarah Meyer,,OK,67.5,66.6,,29,,,,,,,,,-187.5,-190,-190,,,,,,D,Raw,F,Open,Yes
1,Sheena Hodges,,MO,75,73.6,,39,,,,,,,,,167.5,177.5,182.5,182.5,182.5,,,,D,Raw,F,Open,Yes
DQ,Lis Saunders,,GA,75,75,,43,,,,,,,,,,,,,,,,,D,Raw,F,Open,Yes
1,Kimberly Brown,,CA,82.5,82.2,,56,,,,,,,,,150,162.5,175.5,175.5,175.5,,,,D,Raw,F,Open,Yes
2,Alisha Hedrick,,IL,82.5,79.8,,25,,,,,,,,,147.5,160,167.5,167.5,167.5,,,,D,Raw,F,Open,Yes
3,Sonya Wood,,IL,82.5,79.8,,47,,,,,,,,,155,162.5,167.5,167.5,167.5,,,,D,Raw,F,Open,Yes
1,Micaila Minnix,,UT,90,88.4,,27,,,,,,,,,175,202.5,-210,202.5,202.5,,,,D,Raw,F,Open,Yes
2,Brittany Turner,,DC,90,84.8,,31,,,,,,,,,167.5,177.5,-182.5,177.5,177.5,,,,D,Raw,F,Open,Yes
3,Christina Ullman,,OH,90,87.4,,51,,,,,,,,,155,163,-167.5,163,163,,,,D,Raw,F,Open,Yes
1,LaTosha Cleaver,,TX,100,94.4,,43,,,,,,,,,200,215,-227.5,215,215,,,,D,Raw,F,Open,Yes
1,Heather Racine,,IN,110,108.6,,37,,,,,,,,,147.5,157.5,-165,157.5,157.5,,,,D,Raw,F,Open,Yes
1,Laura Haering,,WI,48,46.8,,43,,,,,,,,,105,-115,115,115,115,,,125.5,D,Raw,F,Masters 40-44,Yes
2,Jessica Iuga,,CA,48,46.8,,41,,,,,,,,,97.5,105,107.5,107.5,107.5,,,,D,Raw,F,Masters 40-44,Yes
1,Linda Badillo,,OK,52,49.5,,41,,,,,,,,,105,115,-122.5,115,115,,,,D,Raw,F,Masters 40-44,Yes
1,Judy Oberlander,,CA,56,55,,59,,,,,,,,,125,-137.5,137.5,137.5,137.5,,,,D,Raw,F,Masters 55-59,Yes
2,Monica Gillespie,,MO,56,55.4,,55,,,,,,,,,100,110,-118,110,110,,,,D,Raw,F,Masters 55-59,Yes
1,Tara Kittrell,,AR,60,58.7,,52,,,,,,,,,125,132.5,140,140,140,,,,D,Raw,F,Masters 50-54,Yes
1,Sharon Bohling,,IN,60,58.9,,59,,,,,,,,,145,155,-162.5,155,155,,,,D,Raw,F,Masters 55-59,Yes
1,Shanda Guard,,TX,60,57.7,,65,,,,,,,,,125,135,-140,135,135,,,,D,Raw,F,Masters 65-69,Yes
DQ,Lis Saunders,,GA,75,75,,43,,,,,,,,,,,,,,,,,D,Raw,F,Masters 40-44,Yes
1,Monica Martinez,,TX,75,69.8,,46,,,,,,,,,140,145,-152.5,145,145,,,,D,Raw,F,Masters 45-49,Yes
1,Patience Frazier,,TX,75,73.6,,51,,,,,,,,,-132.5,145,-155,145,145,,,,D,Raw,F,Masters 50-54,Yes
1,Brenda Helmer,Canada,,75,74.2,,63,,,,,,,,,102.5,112.5,-115,112.5,112.5,,,,D,Raw,F,Masters 60-64,Yes
1,Sonya Wood,,IL,82.5,79.8,,47,,,,,,,,,155,162.5,167.5,167.5,167.5,,,,D,Raw,F,Masters 45-49,Yes
1,Kimberly Brown,,CA,82.5,82.2,,56,,,,,,,,,150,162.5,175.5,175.5,175.5,,,,D,Raw,F,Masters 55-59,Yes
1,Bernice Fuss,Canada,,82.5,76.4,,66,,,,,,,,,105,125,137.5,137.5,137.5,,,142.5,D,Raw,F,Masters 65-69,Yes
1,Shari Langrall,,WV,90,87.6,,51,,,,,,,,,160,170,175,175,175,,,177.5,D,Raw,F,Masters 50-54,Yes
2,Christina Ullman,,OH,90,87.4,,51,,,,,,,,,155,163,-167.5,163,163,,,,D,Raw,F,Masters 50-54,Yes
3,Lisa Klaus,,IL,90,84.5,,51,,,,,,,,,132.5,142.5,150,150,150,,,,D,Raw,F,Masters 50-54,Yes
4,Lara Christie,Canada,,90,87.1,,53,,,,,,,,,130,137.5,-145,137.5,137.5,,,,D,Raw,F,Masters 50-54,Yes
1,LaTosha Cleaver,,TX,100,94.4,,43,,,,,,,,,200,215,-227.5,215,215,,,,D,Raw,F,Masters 40-44,Yes
1,Wendy Carlisle,,MI,100,98.9,,54,,,,,,,,,150,-155,-157.5,150,150,,,,D,Raw,F,Masters 50-54,Yes
1,Dylen Parke,,IL,60,59.4,,17,,,,,,,,,170,185,-200,185,185,,,,D,Raw,M,Juniors 15-19,Yes
1,Shiv Patel,,LA,75,75,,23,,,,,,,,,215,-230,-230,215,215,,,,D,Raw,M,Juniors 20-23,Yes
1,Joseph Shepherd,,NE,90,86.2,,23,,,,,,,,,-287.5,287.5,-300,287.5,287.5,,,,D,Raw,M,Juniors 20-23,Yes
2,Brandon White #1,,OK,90,89.5,,22,,,,,,,,,245,-260,-260,245,245,,,,D,Raw,M,Juniors 20-23,Yes
1,Lucas Pagano,,MO,100,94.5,,22,,,,,,,,,230,-257.5,257.5,257.5,257.5,,,,D,Raw,M,Juniors 20-23,Yes
1,Brad Leonard,,OH,140+,158.6,,18,,,,,,,,,265,272.5,277.5,277.5,277.5,,,,D,Raw,M,Juniors 15-19,Yes
1,Ryan Kuhlmann,,AL,75,74,,37,,,,,,,,,255,-267.5,-267.5,255,255,,,,D,Raw,M,Open,Yes
DQ,Gabriel Youngquist,,TX,75,74.3,,24,,,,,,,,,-250,-250,-257.5,,,,,,D,Raw,M,Open,Yes
1,Drew Sherman,,IL,82.5,76.9,,25,,,,,,,,,-227.5,237.5,247.5,247.5,247.5,,,,D,Raw,M,Open,Yes
2,Joe Hays,,MN,82.5,80.8,,62,,,,,,,,,-205,210,227.5,227.5,227.5,,,,D,Raw,M,Open,Yes
1,Tim Wermeling,,WI,90,88.7,,32,,,,,,,,,-300,300,320,320,320,,,,D,Raw,M,Open,Yes
2,Thomas Moschner,,FL,90,88.9,,25,,,,,,,,,-282.5,282.5,300,300,300,,,,D,Raw,M,Open,Yes
3,Joseph Shepherd,,NE,90,86.2,,23,,,,,,,,,-287.5,287.5,-300,287.5,287.5,,,,D,Raw,M,Open,Yes
4,Justin Gregory,,IL,90,89.1,,25,,,,,,,,,227.5,237.5,247.5,247.5,247.5,,,,D,Raw,M,Open,Yes
5,Brandon White #1,,OK,90,89.5,,22,,,,,,,,,245,-260,-260,245,245,,,,D,Raw,M,Open,Yes
6,Andrew Young #1,,NY,90,89.3,,35,,,,,,,,,-240,-240,240,240,240,,,,D,Raw,M,Open,Yes
7,Bobby Brown,,AL,90,89.3,,40,,,,,,,,,182.5,195,202.5,202.5,202.5,,,,D,Raw,M,Open,Yes
DQ,Noah Kim,,VA,100,98.1,,25,,,,,,,,,-295,-295,-295,,,,,,D,Raw,M,Open,Yes
1,Michael Gilfix,,TX,110,107.6,,42,,,,,,,,,262.5,270,-277.5,270,270,,,,D,Raw,M,Open,Yes
2,Joel Bowers,,IN,110,107,,46,,,,,,,,,-247.5,255,262.5,262.5,262.5,,,,D,Raw,M,Open,Yes
3,Todd Pfander,,WI,110,101.4,,62,,,,,,,,,165,175,185,185,185,,,,D,Raw,M,Open,Yes
DQ,Bill Wyatt,,AR,110,108.2,,56,,,,,,,,,-275,-275,,,,,,,D,Raw,M,Open,Yes
1,Kody Medina,,KS,140,136.5,,29,,,,,,,,,325,-340.5,-340.5,325,325,,,,D,Raw,M,Open,Yes
2,Ben Gregg,,PA,140,131.4,,31,,,,,,,,,265,277.5,282.5,282.5,282.5,,,,D,Raw,M,Open,Yes
3,Dennis Alegre,,CA,140,128.3,,57,,,,,,,,,265,-292,-292,265,265,,,,D,Raw,M,Open,Yes
4,Ryan Foray,,VA,140,132.8,,34,,,,,,,,,255,-272.5,-272.5,255,255,,,,D,Raw,M,Open,Yes
1,Justin Wyms,,MO,140+,216.6,,24,,,,,,,,,290,307.5,-320,307.5,307.5,,,,D,Raw,M,Open,Yes
1,Troy Nunley,,CO,60,59.7,,48,,,,,,,,,140,155,-160,155,155,,,,D,Raw,M,Masters 45-49,Yes
DQ,Troy Nunley,,CO,60,59.7,,48,,,,,,,,,-167.5,-167.5,-167.5,,,,,,D,Raw,M,Masters 45-49,Yes
1,Gordon Santee,,NV,60,58.6,,76,,,,,,,,,105,116,122.5,122.5,122.5,,,125,D,Raw,M,Masters 75-79,Yes
1,Ray Mack,,OK,75,74.8,,49,,,,,,,,,167.5,175,182.5,182.5,182.5,,,,D,Raw,M,Masters 45-49,Yes
1,David Webb #7,,AL,75,74,,65,,,,,,,,,150,157.5,162.5,162.5,162.5,,,,D,Raw,M,Masters 65-69,Yes
1,Jeremiah Moore,,IA,82.5,81.3,,41,,,,,,,,,202.5,222.5,-232.5,222.5,222.5,,,,D,Raw,M,Masters 40-44,Yes
1,Russell Welch,,CA,82.5,81.9,,60,,,,,,,,,215,222.5,230,230,230,,,232.5,D,Raw,M,Masters 60-64,Yes
2,Joe Hays,,MN,82.5,80.8,,62,,,,,,,,,-205,210,227.5,227.5,227.5,,,,D,Raw,M,Masters 60-64,Yes
1,Tony Grasso,,TX,82.5,79.3,,70,,,,,,,,,180,200,210,210,210,,,,D,Raw,M,Masters 70-74,Yes
1,Barry Hunlock,,OH,82.5,75.5,,75,,,,,,,,,105,117.5,-120,117.5,117.5,,,,D,Raw,M,Masters 75-79,Yes
1,Bobby Brown,,AL,90,89.3,,40,,,,,,,,,182.5,195,202.5,202.5,202.5,,,,D,Raw,M,Masters 40-44,Yes
1,Robert Gorham,,GA,100,98.1,,60,,,,,,,,,272.5,-287.5,-287.5,272.5,272.5,,,,D,Raw,M,Masters 60-64,Yes
2,Scott Sciaretta #1,,MT,100,95.5,,61,,,,,,,,,217.5,230,-243,230,230,,,,D,Raw,M,Masters 60-64,Yes
3,Derek Sherlock,,CO,100,100,,60,,,,,,,,,210,222.5,230,230,230,,,,D,Raw,M,Masters 60-64,Yes
1,Michael Gilfix,,TX,110,107.6,,42,,,,,,,,,262.5,270,-277.5,270,270,,,,D,Raw,M,Masters 40-44,Yes
1,Joel Bowers,,IN,110,107,,46,,,,,,,,,-247.5,255,262.5,262.5,262.5,,,,D,Raw,M,Masters 45-49,Yes
1,Matthew Stephens,,OR,110,102.2,,53,,,,,,,,,-170,170,185,185,185,,,,D,Raw,M,Masters 50-54,Yes
1,Ennis White,,TX,110,108.4,,58,,,,,,,,,277.5,287.5,295,295,295,,,,D,Raw,M,Masters 55-59,Yes
DQ,Bill Wyatt,,AR,110,108.2,,56,,,,,,,,,-275,-275,,,,,,,D,Raw,M,Masters 55-59,Yes
1,Todd Pfander,,WI,110,101.4,,62,,,,,,,,,165,175,185,185,185,,,,D,Raw,M,Masters 60-64,Yes
1,Michael Burns #3,,MI,125,121,,52,,,,,,,,,225,227.5,230,230,230,,,,D,Raw,M,Masters 50-54,Yes
1,Dennis Alegre,,CA,140,128.3,,57,,,,,,,,,265,-292,-292,265,265,,,,D,Raw,M,Masters 55-59,Yes
1,Mike Shae,,MT,140+,168.4,,52,,,,,,,,,245,-255,255,255,255,,,,D,Raw,M,Masters 50-54,Yes
1,Robert Perez,,TX,82.5,81.3,,27,,,,,,,,,215,225,-235,225,225,,,,D,Single-ply,M,Open,Yes
1,JD Lindstrom,,OK,110,106.3,,47,,,,,,,,,215,240,-270,240,240,,,,D,Single-ply,M,Masters 45-49,Yes
